%!PS-Adobe-3.0 EPSF-3.0
%%Title: train4.eps
%%Creator: matplotlib version 2.2.2, http://matplotlib.org/
%%CreationDate: Thu Jul  5 12:21:47 2018
%%Orientation: portrait
%%BoundingBox: 18 180 594 612
%%EndComments
%%BeginProlog
/mpldict 8 dict def
mpldict begin
/m { moveto } bind def
/l { lineto } bind def
/r { rlineto } bind def
/c { curveto } bind def
/cl { closepath } bind def
/box {
m
1 index 0 r
0 exch r
neg 0 r
cl
} bind def
/clipbox {
box
clip
newpath
} bind def
%!PS-Adobe-3.0 Resource-Font
%%Title: DejaVu Sans
%%Copyright: Copyright (c) 2003 by Bitstream, Inc. All Rights Reserved. Copyright (c) 2006 by Tavmjong Bah. All Rights Reserved. DejaVu changes are in public domain 
%%Creator: Converted from TrueType to type 3 by PPR
25 dict begin
/_d{bind def}bind def
/_m{moveto}_d
/_l{lineto}_d
/_cl{closepath eofill}_d
/_c{curveto}_d
/_sc{7 -1 roll{setcachedevice}{pop pop pop pop pop pop}ifelse}_d
/_e{exec}_d
/FontName /DejaVuSans def
/PaintType 0 def
/FontMatrix[.001 0 0 .001 0 0]def
/FontBBox[-1021 -463 1793 1232]def
/FontType 3 def
/Encoding [ /space /period /zero /one /two /four /five /six /seven /eight /N /P /a /b /e /f /i /l /m /n /o /r /s /t /u /y ] def
/FontInfo 10 dict dup begin
/FamilyName (DejaVu Sans) def
/FullName (DejaVu Sans) def
/Notice (Copyright (c) 2003 by Bitstream, Inc. All Rights Reserved. Copyright (c) 2006 by Tavmjong Bah. All Rights Reserved. DejaVu changes are in public domain ) def
/Weight (Book) def
/Version (Version 2.35) def
/ItalicAngle 0.0 def
/isFixedPitch false def
/UnderlinePosition -130 def
/UnderlineThickness 90 def
end readonly def
/CharStrings 27 dict dup begin
/.notdef 0 def
/space{318 0 0 0 0 0 _sc
}_d
/period{318 0 107 0 210 124 _sc
107 124 _m
210 124 _l
210 0 _l
107 0 _l
107 124 _l
_cl}_d
/zero{636 0 66 -13 570 742 _sc
318 664 _m
267 664 229 639 203 589 _c
177 539 165 464 165 364 _c
165 264 177 189 203 139 _c
229 89 267 64 318 64 _c
369 64 407 89 433 139 _c
458 189 471 264 471 364 _c
471 464 458 539 433 589 _c
407 639 369 664 318 664 _c
318 742 _m
399 742 461 709 505 645 _c
548 580 570 486 570 364 _c
570 241 548 147 505 83 _c
461 19 399 -13 318 -13 _c
236 -13 173 19 130 83 _c
87 147 66 241 66 364 _c
66 486 87 580 130 645 _c
173 709 236 742 318 742 _c
_cl}_d
/one{636 0 110 0 544 729 _sc
124 83 _m
285 83 _l
285 639 _l
110 604 _l
110 694 _l
284 729 _l
383 729 _l
383 83 _l
544 83 _l
544 0 _l
124 0 _l
124 83 _l
_cl}_d
/two{{636 0 73 0 536 742 _sc
192 83 _m
536 83 _l
536 0 _l
73 0 _l
73 83 _l
110 121 161 173 226 239 _c
290 304 331 346 348 365 _c
380 400 402 430 414 455 _c
426 479 433 504 433 528 _c
433 566 419 598 392 622 _c
365 646 330 659 286 659 _c
255 659 222 653 188 643 _c
154 632 117 616 78 594 _c
78 694 _l
118 710 155 722 189 730 _c
223 738 255 742 284 742 _c
}_e{359 742 419 723 464 685 _c
509 647 532 597 532 534 _c
532 504 526 475 515 449 _c
504 422 484 390 454 354 _c
446 344 420 317 376 272 _c
332 227 271 164 192 83 _c
_cl}_e}_d
/four{636 0 49 0 580 729 _sc
378 643 _m
129 254 _l
378 254 _l
378 643 _l
352 729 _m
476 729 _l
476 254 _l
580 254 _l
580 172 _l
476 172 _l
476 0 _l
378 0 _l
378 172 _l
49 172 _l
49 267 _l
352 729 _l
_cl}_d
/five{{636 0 77 -13 549 729 _sc
108 729 _m
495 729 _l
495 646 _l
198 646 _l
198 467 _l
212 472 227 476 241 478 _c
255 480 270 482 284 482 _c
365 482 429 459 477 415 _c
525 370 549 310 549 234 _c
549 155 524 94 475 51 _c
426 8 357 -13 269 -13 _c
238 -13 207 -10 175 -6 _c
143 -1 111 6 77 17 _c
77 116 _l
106 100 136 88 168 80 _c
199 72 232 69 267 69 _c
}_e{323 69 368 83 401 113 _c
433 143 450 183 450 234 _c
450 284 433 324 401 354 _c
368 384 323 399 267 399 _c
241 399 214 396 188 390 _c
162 384 135 375 108 363 _c
108 729 _l
_cl}_e}_d
/six{{636 0 70 -13 573 742 _sc
330 404 _m
286 404 251 388 225 358 _c
199 328 186 286 186 234 _c
186 181 199 139 225 109 _c
251 79 286 64 330 64 _c
374 64 409 79 435 109 _c
461 139 474 181 474 234 _c
474 286 461 328 435 358 _c
409 388 374 404 330 404 _c
526 713 _m
526 623 _l
501 635 476 644 451 650 _c
425 656 400 659 376 659 _c
310 659 260 637 226 593 _c
}_e{192 549 172 482 168 394 _c
187 422 211 444 240 459 _c
269 474 301 482 336 482 _c
409 482 467 459 509 415 _c
551 371 573 310 573 234 _c
573 159 550 99 506 54 _c
462 9 403 -13 330 -13 _c
246 -13 181 19 137 83 _c
92 147 70 241 70 364 _c
70 479 97 571 152 639 _c
206 707 280 742 372 742 _c
396 742 421 739 447 735 _c
472 730 498 723 526 713 _c
_cl}_e}_d
/seven{636 0 82 0 551 729 _sc
82 729 _m
551 729 _l
551 687 _l
286 0 _l
183 0 _l
432 646 _l
82 646 _l
82 729 _l
_cl}_d
/eight{{636 0 68 -13 568 742 _sc
318 346 _m
271 346 234 333 207 308 _c
180 283 167 249 167 205 _c
167 161 180 126 207 101 _c
234 76 271 64 318 64 _c
364 64 401 76 428 102 _c
455 127 469 161 469 205 _c
469 249 455 283 429 308 _c
402 333 365 346 318 346 _c
219 388 _m
177 398 144 418 120 447 _c
96 476 85 511 85 553 _c
85 611 105 657 147 691 _c
188 725 245 742 318 742 _c
}_e{390 742 447 725 489 691 _c
530 657 551 611 551 553 _c
551 511 539 476 515 447 _c
491 418 459 398 417 388 _c
464 377 501 355 528 323 _c
554 291 568 251 568 205 _c
568 134 546 80 503 43 _c
459 5 398 -13 318 -13 _c
237 -13 175 5 132 43 _c
89 80 68 134 68 205 _c
68 251 81 291 108 323 _c
134 355 171 377 219 388 _c
183 544 _m
183 506 194 476 218 455 _c
}_e{242 434 275 424 318 424 _c
360 424 393 434 417 455 _c
441 476 453 506 453 544 _c
453 582 441 611 417 632 _c
393 653 360 664 318 664 _c
275 664 242 653 218 632 _c
194 611 183 582 183 544 _c
_cl}_e}_d
/N{748 0 98 0 650 729 _sc
98 729 _m
231 729 _l
554 119 _l
554 729 _l
650 729 _l
650 0 _l
517 0 _l
194 610 _l
194 0 _l
98 0 _l
98 729 _l
_cl}_d
/P{603 0 98 0 569 729 _sc
197 648 _m
197 374 _l
321 374 _l
367 374 402 385 427 409 _c
452 433 465 467 465 511 _c
465 555 452 588 427 612 _c
402 636 367 648 321 648 _c
197 648 _l
98 729 _m
321 729 _l
402 729 464 710 506 673 _c
548 636 569 582 569 511 _c
569 439 548 384 506 348 _c
464 311 402 293 321 293 _c
197 293 _l
197 0 _l
98 0 _l
98 729 _l
_cl}_d
/a{{613 0 60 -13 522 560 _sc
343 275 _m
270 275 220 266 192 250 _c
164 233 150 205 150 165 _c
150 133 160 107 181 89 _c
202 70 231 61 267 61 _c
317 61 357 78 387 114 _c
417 149 432 196 432 255 _c
432 275 _l
343 275 _l
522 312 _m
522 0 _l
432 0 _l
432 83 _l
411 49 385 25 355 10 _c
325 -5 287 -13 243 -13 _c
187 -13 142 2 109 33 _c
76 64 60 106 60 159 _c
}_e{60 220 80 266 122 298 _c
163 329 224 345 306 345 _c
432 345 _l
432 354 _l
432 395 418 427 391 450 _c
364 472 326 484 277 484 _c
245 484 215 480 185 472 _c
155 464 127 453 100 439 _c
100 522 _l
132 534 164 544 195 550 _c
226 556 256 560 286 560 _c
365 560 424 539 463 498 _c
502 457 522 395 522 312 _c
_cl}_e}_d
/b{{635 0 91 -13 580 760 _sc
487 273 _m
487 339 473 390 446 428 _c
418 466 381 485 334 485 _c
286 485 249 466 222 428 _c
194 390 181 339 181 273 _c
181 207 194 155 222 117 _c
249 79 286 61 334 61 _c
381 61 418 79 446 117 _c
473 155 487 207 487 273 _c
181 464 _m
199 496 223 520 252 536 _c
281 552 316 560 356 560 _c
422 560 476 533 518 481 _c
559 428 580 359 580 273 _c
}_e{580 187 559 117 518 65 _c
476 13 422 -13 356 -13 _c
316 -13 281 -5 252 10 _c
223 25 199 49 181 82 _c
181 0 _l
91 0 _l
91 760 _l
181 760 _l
181 464 _l
_cl}_e}_d
/e{{615 0 55 -13 562 560 _sc
562 296 _m
562 252 _l
149 252 _l
153 190 171 142 205 110 _c
238 78 284 62 344 62 _c
378 62 412 66 444 74 _c
476 82 509 95 541 113 _c
541 28 _l
509 14 476 3 442 -3 _c
408 -9 373 -13 339 -13 _c
251 -13 182 12 131 62 _c
80 112 55 181 55 268 _c
55 357 79 428 127 481 _c
175 533 241 560 323 560 _c
397 560 455 536 498 489 _c
}_e{540 441 562 377 562 296 _c
472 322 _m
471 371 457 410 431 440 _c
404 469 368 484 324 484 _c
274 484 234 469 204 441 _c
174 413 156 373 152 322 _c
472 322 _l
_cl}_e}_d
/f{352 0 23 0 371 760 _sc
371 760 _m
371 685 _l
285 685 _l
253 685 230 678 218 665 _c
205 652 199 629 199 595 _c
199 547 _l
347 547 _l
347 477 _l
199 477 _l
199 0 _l
109 0 _l
109 477 _l
23 477 _l
23 547 _l
109 547 _l
109 585 _l
109 645 123 690 151 718 _c
179 746 224 760 286 760 _c
371 760 _l
_cl}_d
/i{278 0 94 0 184 760 _sc
94 547 _m
184 547 _l
184 0 _l
94 0 _l
94 547 _l
94 760 _m
184 760 _l
184 646 _l
94 646 _l
94 760 _l
_cl}_d
/l{278 0 94 0 184 760 _sc
94 760 _m
184 760 _l
184 0 _l
94 0 _l
94 760 _l
_cl}_d
/m{{974 0 91 0 889 560 _sc
520 442 _m
542 482 569 511 600 531 _c
631 550 668 560 711 560 _c
767 560 811 540 842 500 _c
873 460 889 403 889 330 _c
889 0 _l
799 0 _l
799 327 _l
799 379 789 418 771 444 _c
752 469 724 482 686 482 _c
639 482 602 466 575 435 _c
548 404 535 362 535 309 _c
535 0 _l
445 0 _l
445 327 _l
445 379 435 418 417 444 _c
398 469 369 482 331 482 _c
}_e{285 482 248 466 221 435 _c
194 404 181 362 181 309 _c
181 0 _l
91 0 _l
91 547 _l
181 547 _l
181 462 _l
201 495 226 520 255 536 _c
283 552 317 560 357 560 _c
397 560 430 550 458 530 _c
486 510 506 480 520 442 _c
_cl}_e}_d
/n{634 0 91 0 549 560 _sc
549 330 _m
549 0 _l
459 0 _l
459 327 _l
459 379 448 417 428 443 _c
408 469 378 482 338 482 _c
289 482 251 466 223 435 _c
195 404 181 362 181 309 _c
181 0 _l
91 0 _l
91 547 _l
181 547 _l
181 462 _l
202 494 227 519 257 535 _c
286 551 320 560 358 560 _c
420 560 468 540 500 501 _c
532 462 549 405 549 330 _c
_cl}_d
/o{612 0 55 -13 557 560 _sc
306 484 _m
258 484 220 465 192 427 _c
164 389 150 338 150 273 _c
150 207 163 156 191 118 _c
219 80 257 62 306 62 _c
354 62 392 80 420 118 _c
448 156 462 207 462 273 _c
462 337 448 389 420 427 _c
392 465 354 484 306 484 _c
306 560 _m
384 560 445 534 490 484 _c
534 433 557 363 557 273 _c
557 183 534 113 490 63 _c
445 12 384 -13 306 -13 _c
227 -13 165 12 121 63 _c
77 113 55 183 55 273 _c
55 363 77 433 121 484 _c
165 534 227 560 306 560 _c
_cl}_d
/r{411 0 91 0 411 560 _sc
411 463 _m
401 469 390 473 378 476 _c
366 478 353 480 339 480 _c
288 480 249 463 222 430 _c
194 397 181 350 181 288 _c
181 0 _l
91 0 _l
91 547 _l
181 547 _l
181 462 _l
199 495 224 520 254 536 _c
284 552 321 560 365 560 _c
371 560 378 559 386 559 _c
393 558 401 557 411 555 _c
411 463 _l
_cl}_d
/s{{521 0 54 -13 472 560 _sc
443 531 _m
443 446 _l
417 458 391 468 364 475 _c
336 481 308 485 279 485 _c
234 485 200 478 178 464 _c
156 450 145 430 145 403 _c
145 382 153 366 169 354 _c
185 342 217 330 265 320 _c
296 313 _l
360 299 405 279 432 255 _c
458 230 472 195 472 151 _c
472 100 452 60 412 31 _c
372 1 316 -13 246 -13 _c
216 -13 186 -10 154 -5 _c
}_e{122 0 89 8 54 20 _c
54 113 _l
87 95 120 82 152 74 _c
184 65 216 61 248 61 _c
290 61 323 68 346 82 _c
368 96 380 117 380 144 _c
380 168 371 187 355 200 _c
339 213 303 226 247 238 _c
216 245 _l
160 257 119 275 95 299 _c
70 323 58 356 58 399 _c
58 450 76 490 112 518 _c
148 546 200 560 268 560 _c
301 560 332 557 362 552 _c
391 547 418 540 443 531 _c
}_e{_cl}_e}_d
/t{392 0 27 0 368 702 _sc
183 702 _m
183 547 _l
368 547 _l
368 477 _l
183 477 _l
183 180 _l
183 135 189 106 201 94 _c
213 81 238 75 276 75 _c
368 75 _l
368 0 _l
276 0 _l
206 0 158 13 132 39 _c
106 65 93 112 93 180 _c
93 477 _l
27 477 _l
27 547 _l
93 547 _l
93 702 _l
183 702 _l
_cl}_d
/u{634 0 85 -13 543 560 _sc
85 216 _m
85 547 _l
175 547 _l
175 219 _l
175 167 185 129 205 103 _c
225 77 255 64 296 64 _c
344 64 383 79 411 110 _c
439 141 453 183 453 237 _c
453 547 _l
543 547 _l
543 0 _l
453 0 _l
453 84 _l
431 50 405 26 377 10 _c
348 -5 315 -13 277 -13 _c
214 -13 166 6 134 45 _c
101 83 85 140 85 216 _c
311 560 _m
311 560 _l
_cl}_d
/y{592 0 30 -207 562 547 _sc
322 -50 _m
296 -114 271 -157 247 -177 _c
223 -197 191 -207 151 -207 _c
79 -207 _l
79 -132 _l
132 -132 _l
156 -132 175 -126 189 -114 _c
203 -102 218 -75 235 -31 _c
251 9 _l
30 547 _l
125 547 _l
296 119 _l
467 547 _l
562 547 _l
322 -50 _l
_cl}_d
end readonly def

/BuildGlyph
 {exch begin
 CharStrings exch
 2 copy known not{pop /.notdef}if
 true 3 1 roll get exec
 end}_d

/BuildChar {
 1 index /Encoding get exch get
 1 index /BuildGlyph get exec
}_d

FontName currentdict end definefont pop
end
%%EndProlog
mpldict begin
18 180 translate
576 432 0 0 clipbox
gsave
0 0 m
576 0 l
576 432 l
0 432 l
cl
1.000 setgray
fill
grestore
gsave
72 54 m
518.4 54 l
518.4 380.16 l
72 380.16 l
cl
1.000 setgray
fill
grestore
0.800 setlinewidth
1 setlinejoin
0 setlinecap
[] 0 setdash
0.000 setgray
gsave
/o {
gsave
newpath
translate
0.8 setlinewidth
1 setlinejoin
0 setlinecap
0 0 m
0 -3.5 l

gsave
0.000 setgray
fill
grestore
stroke
grestore
} bind def
92.088 54 o
grestore
/DejaVuSans findfont
10.000 scalefont
setfont
gsave
88.908312 39.406250 translate
0.000000 rotate
0.000000 0.000000 m /zero glyphshow
grestore
gsave
/o {
gsave
newpath
translate
0.8 setlinewidth
1 setlinejoin
0 setlinecap
0 0 m
0 -3.5 l

gsave
0.000 setgray
fill
grestore
stroke
grestore
} bind def
173.252 54 o
grestore
gsave
163.712574 39.406250 translate
0.000000 rotate
0.000000 0.000000 m /two glyphshow
6.362305 0.000000 m /zero glyphshow
12.724609 0.000000 m /zero glyphshow
grestore
gsave
/o {
gsave
newpath
translate
0.8 setlinewidth
1 setlinejoin
0 setlinecap
0 0 m
0 -3.5 l

gsave
0.000 setgray
fill
grestore
stroke
grestore
} bind def
254.415 54 o
grestore
gsave
244.876210 39.406250 translate
0.000000 rotate
0.000000 0.000000 m /four glyphshow
6.362305 0.000000 m /zero glyphshow
12.724609 0.000000 m /zero glyphshow
grestore
gsave
/o {
gsave
newpath
translate
0.8 setlinewidth
1 setlinejoin
0 setlinecap
0 0 m
0 -3.5 l

gsave
0.000 setgray
fill
grestore
stroke
grestore
} bind def
335.579 54 o
grestore
gsave
326.039847 39.406250 translate
0.000000 rotate
0.000000 0.000000 m /six glyphshow
6.362305 0.000000 m /zero glyphshow
12.724609 0.000000 m /zero glyphshow
grestore
gsave
/o {
gsave
newpath
translate
0.8 setlinewidth
1 setlinejoin
0 setlinecap
0 0 m
0 -3.5 l

gsave
0.000 setgray
fill
grestore
stroke
grestore
} bind def
416.743 54 o
grestore
gsave
407.203483 39.406250 translate
0.000000 rotate
0.000000 0.000000 m /eight glyphshow
6.362305 0.000000 m /zero glyphshow
12.724609 0.000000 m /zero glyphshow
grestore
gsave
/o {
gsave
newpath
translate
0.8 setlinewidth
1 setlinejoin
0 setlinecap
0 0 m
0 -3.5 l

gsave
0.000 setgray
fill
grestore
stroke
grestore
} bind def
497.906 54 o
grestore
gsave
485.187432 39.406250 translate
0.000000 rotate
0.000000 0.000000 m /one glyphshow
6.362305 0.000000 m /zero glyphshow
12.724609 0.000000 m /zero glyphshow
19.086914 0.000000 m /zero glyphshow
grestore
gsave
252.848437 25.734375 translate
0.000000 rotate
0.000000 0.000000 m /N glyphshow
7.480469 0.000000 m /u glyphshow
13.818359 0.000000 m /m glyphshow
23.559570 0.000000 m /b glyphshow
29.907227 0.000000 m /e glyphshow
36.059570 0.000000 m /r glyphshow
40.170898 0.000000 m /space glyphshow
43.349609 0.000000 m /o glyphshow
49.467773 0.000000 m /f glyphshow
52.988281 0.000000 m /space glyphshow
56.166992 0.000000 m /t glyphshow
60.087891 0.000000 m /r glyphshow
64.199219 0.000000 m /a glyphshow
70.327148 0.000000 m /i glyphshow
73.105469 0.000000 m /n glyphshow
79.443359 0.000000 m /s glyphshow
grestore
gsave
/o {
gsave
newpath
translate
0.8 setlinewidth
1 setlinejoin
0 setlinecap
0 0 m
-3.5 0 l

gsave
0.000 setgray
fill
grestore
stroke
grestore
} bind def
72 68.8255 o
grestore
gsave
30.015625 65.028580 translate
0.000000 rotate
0.000000 0.000000 m /zero glyphshow
6.362305 0.000000 m /period glyphshow
9.541016 0.000000 m /zero glyphshow
15.903320 0.000000 m /zero glyphshow
22.265625 0.000000 m /zero glyphshow
28.627930 0.000000 m /zero glyphshow
grestore
gsave
/o {
gsave
newpath
translate
0.8 setlinewidth
1 setlinejoin
0 setlinecap
0 0 m
-3.5 0 l

gsave
0.000 setgray
fill
grestore
stroke
grestore
} bind def
72 111.007 o
grestore
gsave
30.015625 107.210391 translate
0.000000 rotate
0.000000 0.000000 m /zero glyphshow
6.362305 0.000000 m /period glyphshow
9.541016 0.000000 m /zero glyphshow
15.903320 0.000000 m /zero glyphshow
22.265625 0.000000 m /two glyphshow
28.627930 0.000000 m /five glyphshow
grestore
gsave
/o {
gsave
newpath
translate
0.8 setlinewidth
1 setlinejoin
0 setlinecap
0 0 m
-3.5 0 l

gsave
0.000 setgray
fill
grestore
stroke
grestore
} bind def
72 153.189 o
grestore
gsave
30.015625 149.392202 translate
0.000000 rotate
0.000000 0.000000 m /zero glyphshow
6.362305 0.000000 m /period glyphshow
9.541016 0.000000 m /zero glyphshow
15.903320 0.000000 m /zero glyphshow
22.265625 0.000000 m /five glyphshow
28.627930 0.000000 m /zero glyphshow
grestore
gsave
/o {
gsave
newpath
translate
0.8 setlinewidth
1 setlinejoin
0 setlinecap
0 0 m
-3.5 0 l

gsave
0.000 setgray
fill
grestore
stroke
grestore
} bind def
72 195.371 o
grestore
gsave
30.015625 191.574013 translate
0.000000 rotate
0.000000 0.000000 m /zero glyphshow
6.362305 0.000000 m /period glyphshow
9.541016 0.000000 m /zero glyphshow
15.903320 0.000000 m /zero glyphshow
22.265625 0.000000 m /seven glyphshow
28.627930 0.000000 m /five glyphshow
grestore
gsave
/o {
gsave
newpath
translate
0.8 setlinewidth
1 setlinejoin
0 setlinecap
0 0 m
-3.5 0 l

gsave
0.000 setgray
fill
grestore
stroke
grestore
} bind def
72 237.553 o
grestore
gsave
30.015625 233.755824 translate
0.000000 rotate
0.000000 0.000000 m /zero glyphshow
6.362305 0.000000 m /period glyphshow
9.541016 0.000000 m /zero glyphshow
15.903320 0.000000 m /one glyphshow
22.265625 0.000000 m /zero glyphshow
28.627930 0.000000 m /zero glyphshow
grestore
gsave
/o {
gsave
newpath
translate
0.8 setlinewidth
1 setlinejoin
0 setlinecap
0 0 m
-3.5 0 l

gsave
0.000 setgray
fill
grestore
stroke
grestore
} bind def
72 279.735 o
grestore
gsave
30.015625 275.937635 translate
0.000000 rotate
0.000000 0.000000 m /zero glyphshow
6.362305 0.000000 m /period glyphshow
9.541016 0.000000 m /zero glyphshow
15.903320 0.000000 m /one glyphshow
22.265625 0.000000 m /two glyphshow
28.627930 0.000000 m /five glyphshow
grestore
gsave
/o {
gsave
newpath
translate
0.8 setlinewidth
1 setlinejoin
0 setlinecap
0 0 m
-3.5 0 l

gsave
0.000 setgray
fill
grestore
stroke
grestore
} bind def
72 321.916 o
grestore
gsave
30.015625 318.119446 translate
0.000000 rotate
0.000000 0.000000 m /zero glyphshow
6.362305 0.000000 m /period glyphshow
9.541016 0.000000 m /zero glyphshow
15.903320 0.000000 m /one glyphshow
22.265625 0.000000 m /five glyphshow
28.627930 0.000000 m /zero glyphshow
grestore
gsave
/o {
gsave
newpath
translate
0.8 setlinewidth
1 setlinejoin
0 setlinecap
0 0 m
-3.5 0 l

gsave
0.000 setgray
fill
grestore
stroke
grestore
} bind def
72 364.098 o
grestore
gsave
30.015625 360.301257 translate
0.000000 rotate
0.000000 0.000000 m /zero glyphshow
6.362305 0.000000 m /period glyphshow
9.541016 0.000000 m /zero glyphshow
15.903320 0.000000 m /one glyphshow
22.265625 0.000000 m /seven glyphshow
28.627930 0.000000 m /five glyphshow
grestore
gsave
23.937500 190.447188 translate
90.000000 rotate
0.000000 0.000000 m /P glyphshow
6.030273 0.000000 m /r glyphshow
10.141602 0.000000 m /o glyphshow
16.259766 0.000000 m /b glyphshow
22.607422 0.000000 m /a glyphshow
28.735352 0.000000 m /b glyphshow
35.083008 0.000000 m /i glyphshow
37.861328 0.000000 m /l glyphshow
40.639648 0.000000 m /i glyphshow
43.417969 0.000000 m /t glyphshow
47.338867 0.000000 m /y glyphshow
grestore
3.000 setlinewidth
2 setlinecap
0.031 0.188 0.420 setrgbcolor
gsave
446.4 326.2 72 54 clipbox
92.290909 68.825455 m
116.234182 68.825455 l
116.234182 68.825455 l
116.234182 168.465943 l
116.64 168.465943 l
116.64 168.465943 l
116.64 166.832492 l
117.045818 166.832492 l
117.045818 166.832492 l
117.045818 165.251734 l
117.451636 165.251734 l
117.451636 165.251734 l
117.451636 163.721158 l
117.857455 163.721158 l
117.857455 163.721158 l
117.857455 162.238412 l
118.263273 162.238412 l
118.263273 162.238412 l
118.263273 160.80129 l
118.669091 160.80129 l
118.669091 160.80129 l
118.669091 159.407717 l
119.074909 159.407717 l
119.074909 159.407717 l
119.074909 158.055743 l
119.480727 158.055743 l
119.480727 158.055743 l
119.480727 156.743532 l
119.886545 156.743532 l
119.886545 156.743532 l
119.886545 155.469357 l
120.292364 155.469357 l
120.292364 155.469357 l
120.292364 154.231587 l
120.698182 154.231587 l
120.698182 154.231587 l
120.698182 153.028684 l
121.104 153.028684 l
121.104 153.028684 l
121.104 151.859195 l
121.509818 151.859195 l
121.509818 151.859195 l
121.509818 150.721746 l
121.915636 150.721746 l
121.915636 150.721746 l
121.915636 149.61504 l
122.321455 149.61504 l
122.321455 149.61504 l
122.321455 148.537845 l
122.727273 148.537845 l
122.727273 148.537845 l
122.727273 147.488998 l
123.133091 147.488998 l
123.133091 147.488998 l
123.133091 146.467393 l
123.538909 146.467393 l
123.538909 146.467393 l
123.538909 145.471984 l
123.944727 145.471984 l
123.944727 145.471984 l
123.944727 144.501775 l
124.350545 144.501775 l
124.350545 144.501775 l
124.350545 143.555821 l
124.756364 143.555821 l
124.756364 143.555821 l
124.756364 142.633224 l
125.162182 142.633224 l
125.162182 142.633224 l
125.162182 141.733129 l
125.568 141.733129 l
125.568 141.733129 l
125.568 140.854723 l
125.973818 140.854723 l
125.973818 140.854723 l
125.973818 139.997232 l
126.379636 139.997232 l
126.379636 139.997232 l
126.379636 139.159917 l
126.785455 139.159917 l
126.785455 139.159917 l
126.785455 138.342074 l
127.191273 138.342074 l
127.191273 138.342074 l
127.191273 137.543033 l
127.597091 137.543033 l
127.597091 137.543033 l
127.597091 136.762151 l
128.002909 136.762151 l
128.002909 136.762151 l
128.002909 135.998817 l
128.408727 135.998817 l
128.408727 135.998817 l
128.408727 135.252447 l
128.814545 135.252447 l
128.814545 135.252447 l
128.814545 134.52248 l
129.220364 134.52248 l
129.220364 134.52248 l
129.220364 133.808382 l
129.626182 133.808382 l
129.626182 133.808382 l
129.626182 133.109641 l
130.032 133.109641 l
130.032 133.109641 l
130.032 132.425766 l
130.437818 132.425766 l
130.437818 132.425766 l
130.437818 131.756289 l
130.843636 131.756289 l
130.843636 131.756289 l
130.843636 131.10076 l
131.249455 131.10076 l
131.249455 131.10076 l
131.249455 130.458746 l
131.655273 130.458746 l
131.655273 130.458746 l
131.655273 129.829835 l
132.061091 129.829835 l
132.061091 129.829835 l
132.061091 129.213629 l
132.466909 129.213629 l
132.466909 129.213629 l
132.466909 128.609748 l
132.872727 128.609748 l
132.872727 128.609748 l
132.872727 128.017824 l
133.278545 128.017824 l
133.278545 128.017824 l
133.278545 127.437506 l
133.684364 127.437506 l
133.684364 127.437506 l
133.684364 126.868457 l
134.090182 126.868457 l
134.090182 126.868457 l
134.090182 126.310352 l
134.496 126.310352 l
134.496 126.310352 l
134.496 125.762876 l
134.901818 125.762876 l
134.901818 125.762876 l
134.901818 125.225731 l
135.307636 125.225731 l
135.307636 125.225731 l
135.307636 124.698626 l
135.713455 124.698626 l
135.713455 124.698626 l
135.713455 124.181281 l
136.119273 124.181281 l
136.119273 124.181281 l
136.119273 123.67343 l
136.525091 123.67343 l
136.525091 123.67343 l
136.525091 123.174812 l
136.930909 123.174812 l
136.930909 123.174812 l
136.930909 122.685178 l
137.336727 122.685178 l
137.336727 122.685178 l
137.336727 122.204288 l
137.742545 122.204288 l
137.742545 122.204288 l
137.742545 121.731909 l
138.148364 121.731909 l
138.148364 121.731909 l
138.148364 121.267817 l
138.554182 121.267817 l
138.554182 121.267817 l
138.554182 120.811796 l
138.96 120.811796 l
138.96 120.811796 l
138.96 120.363638 l
139.365818 120.363638 l
139.365818 120.363638 l
139.365818 119.923141 l
139.771636 119.923141 l
139.771636 119.923141 l
139.771636 119.49011 l
140.177455 119.49011 l
140.177455 119.49011 l
140.177455 119.064356 l
140.583273 119.064356 l
140.583273 119.064356 l
140.583273 118.645699 l
140.989091 118.645699 l
140.989091 118.645699 l
140.989091 118.233961 l
141.394909 118.233961 l
141.394909 118.233961 l
141.394909 117.828973 l
141.800727 117.828973 l
141.800727 117.828973 l
141.800727 117.430571 l
142.206545 117.430571 l
142.206545 117.430571 l
142.206545 117.038594 l
142.612364 117.038594 l
142.612364 117.038594 l
142.612364 116.652889 l
143.018182 116.652889 l
143.018182 116.652889 l
143.018182 116.273306 l
143.424 116.273306 l
143.424 116.273306 l
143.424 115.899701 l
143.829818 115.899701 l
143.829818 115.899701 l
143.829818 115.531933 l
144.235636 115.531933 l
144.235636 115.531933 l
144.235636 115.169868 l
144.641455 115.169868 l
144.641455 115.169868 l
144.641455 114.813372 l
145.047273 114.813372 l
145.047273 114.813372 l
145.047273 114.462319 l
145.453091 114.462319 l
145.453091 114.462319 l
145.453091 114.116586 l
145.858909 114.116586 l
145.858909 114.116586 l
145.858909 113.776051 l
146.264727 113.776051 l
146.264727 113.776051 l
146.264727 113.440599 l
146.670545 113.440599 l
146.670545 113.440599 l
146.670545 113.110116 l
147.076364 113.110116 l
147.076364 113.110116 l
147.076364 112.784493 l
147.482182 112.784493 l
147.482182 112.784493 l
147.482182 112.463625 l
147.888 112.463625 l
147.888 112.463625 l
147.888 112.147406 l
148.293818 112.147406 l
148.293818 112.147406 l
148.293818 111.835737 l
148.699636 111.835737 l
148.699636 111.835737 l
148.699636 111.528521 l
149.105455 111.528521 l
149.105455 111.528521 l
149.105455 111.225662 l
149.511273 111.225662 l
149.511273 111.225662 l
149.511273 110.927069 l
149.917091 110.927069 l
149.917091 110.927069 l
149.917091 110.632652 l
150.322909 110.632652 l
150.322909 110.632652 l
150.322909 110.342325 l
150.728727 110.342325 l
150.728727 110.342325 l
150.728727 110.056001 l
151.134545 110.056001 l
151.134545 110.056001 l
151.134545 109.7736 l
151.540364 109.7736 l
151.540364 109.7736 l
151.540364 109.495042 l
151.946182 109.495042 l
151.946182 109.495042 l
151.946182 109.220247 l
152.352 109.220247 l
152.352 109.220247 l
152.352 108.949141 l
152.757818 108.949141 l
152.757818 108.949141 l
152.757818 108.68165 l
153.163636 108.68165 l
153.163636 108.68165 l
153.163636 108.417702 l
153.569455 108.417702 l
153.569455 108.417702 l
153.569455 108.157226 l
153.975273 108.157226 l
153.975273 108.157226 l
153.975273 107.900156 l
154.381091 107.900156 l
154.381091 107.900156 l
154.381091 107.646424 l
154.786909 107.646424 l
154.786909 107.646424 l
154.786909 107.395966 l
155.192727 107.395966 l
155.192727 107.395966 l
155.192727 107.148719 l
155.598545 107.148719 l
155.598545 107.148719 l
155.598545 106.904622 l
156.004364 106.904622 l
156.004364 106.904622 l
156.004364 106.663615 l
156.410182 106.663615 l
156.410182 106.663615 l
156.410182 106.425639 l
156.816 106.425639 l
156.816 106.425639 l
156.816 106.190638 l
157.221818 106.190638 l
157.221818 106.190638 l
157.221818 105.958556 l
157.627636 105.958556 l
157.627636 105.958556 l
157.627636 105.729339 l
158.033455 105.729339 l
158.033455 105.729339 l
158.033455 105.502935 l
158.439273 105.502935 l
158.439273 105.502935 l
158.439273 105.279292 l
158.845091 105.279292 l
158.845091 105.279292 l
158.845091 105.058359 l
159.250909 105.058359 l
159.250909 105.058359 l
159.250909 104.840089 l
159.656727 104.840089 l
159.656727 104.840089 l
159.656727 104.624432 l
160.062545 104.624432 l
160.062545 104.624432 l
160.062545 104.411343 l
160.468364 104.411343 l
160.468364 104.411343 l
160.468364 104.200776 l
160.874182 104.200776 l
160.874182 104.200776 l
160.874182 103.992686 l
161.28 103.992686 l
161.28 103.992686 l
161.28 103.787029 l
161.685818 103.787029 l
161.685818 103.787029 l
161.685818 103.583764 l
162.091636 103.583764 l
162.091636 103.583764 l
162.091636 103.382849 l
162.497455 103.382849 l
162.497455 103.382849 l
162.497455 103.184244 l
162.903273 103.184244 l
162.903273 103.184244 l
162.903273 102.987908 l
163.309091 102.987908 l
163.309091 102.987908 l
163.309091 102.793803 l
163.714909 102.793803 l
163.714909 102.793803 l
163.714909 102.601891 l
164.120727 102.601891 l
164.120727 102.601891 l
164.120727 102.412136 l
164.526545 102.412136 l
164.526545 102.412136 l
164.526545 102.224501 l
164.932364 102.224501 l
164.932364 102.224501 l
164.932364 102.038951 l
165.338182 102.038951 l
165.338182 102.038951 l
165.338182 101.855451 l
165.744 101.855451 l
165.744 101.855451 l
165.744 101.673967 l
166.149818 101.673967 l
166.149818 101.673967 l
166.149818 101.494467 l
166.555636 101.494467 l
166.555636 101.494467 l
166.555636 101.316918 l
166.961455 101.316918 l
166.961455 101.316918 l
166.961455 101.141289 l
167.367273 101.141289 l
167.367273 101.141289 l
167.367273 100.967548 l
167.773091 100.967548 l
167.773091 100.967548 l
167.773091 100.795665 l
168.178909 100.795665 l
168.178909 100.795665 l
168.178909 100.62561 l
168.584727 100.62561 l
168.584727 100.62561 l
168.584727 100.457356 l
168.990545 100.457356 l
168.990545 100.457356 l
168.990545 100.290872 l
169.396364 100.290872 l
169.396364 100.290872 l
169.396364 100.126131 l
169.802182 100.126131 l
169.802182 100.126131 l
169.802182 99.963107 l
170.208 99.963107 l
170.208 99.963107 l
170.208 99.801772 l
170.613818 99.801772 l
170.613818 99.801772 l
170.613818 99.6421 l
171.019636 99.6421 l
171.019636 99.6421 l
171.019636 99.484066 l
171.425455 99.484066 l
171.425455 99.484066 l
171.425455 99.327645 l
171.831273 99.327645 l
171.831273 99.327645 l
171.831273 99.172811 l
172.237091 99.172811 l
172.237091 99.172811 l
172.237091 99.019542 l
172.642909 99.019542 l
172.642909 99.019542 l
172.642909 98.867813 l
173.048727 98.867813 l
173.048727 98.867813 l
173.048727 98.717601 l
173.454545 98.717601 l
173.454545 98.717601 l
173.454545 98.568884 l
173.860364 98.568884 l
173.860364 98.568884 l
173.860364 98.421639 l
174.266182 98.421639 l
174.266182 98.421639 l
174.266182 98.275845 l
174.672 98.275845 l
174.672 98.275845 l
174.672 98.131481 l
175.077818 98.131481 l
175.077818 98.131481 l
175.077818 97.988524 l
175.483636 97.988524 l
175.483636 97.988524 l
175.483636 97.846956 l
175.889455 97.846956 l
175.889455 97.846956 l
175.889455 97.706756 l
176.295273 97.706756 l
176.295273 97.706756 l
176.295273 97.567903 l
176.701091 97.567903 l
176.701091 97.567903 l
176.701091 97.430379 l
177.106909 97.430379 l
177.106909 97.430379 l
177.106909 97.294165 l
177.512727 97.294165 l
177.512727 97.294165 l
177.512727 97.159243 l
177.918545 97.159243 l
177.918545 97.159243 l
177.918545 97.025593 l
178.324364 97.025593 l
178.324364 97.025593 l
178.324364 96.893198 l
178.730182 96.893198 l
178.730182 96.893198 l
178.730182 96.76204 l
179.136 96.76204 l
179.136 96.76204 l
179.136 96.632102 l
179.541818 96.632102 l
179.541818 96.632102 l
179.541818 96.503368 l
179.947636 96.503368 l
179.947636 96.503368 l
179.947636 96.37582 l
180.353455 96.37582 l
180.353455 96.37582 l
180.353455 96.249442 l
180.759273 96.249442 l
180.759273 96.249442 l
180.759273 96.124218 l
181.165091 96.124218 l
181.165091 96.124218 l
181.165091 96.000133 l
181.570909 96.000133 l
181.570909 96.000133 l
181.570909 95.877171 l
181.976727 95.877171 l
181.976727 95.877171 l
181.976727 95.755316 l
182.382545 95.755316 l
182.382545 95.755316 l
182.382545 95.634555 l
182.788364 95.634555 l
182.788364 95.634555 l
182.788364 95.514871 l
183.194182 95.514871 l
183.194182 95.514871 l
183.194182 95.396251 l
183.6 95.396251 l
183.6 95.396251 l
183.6 95.278682 l
184.005818 95.278682 l
184.005818 95.278682 l
184.005818 95.162147 l
184.411636 95.162147 l
184.411636 95.162147 l
184.411636 95.046636 l
184.817455 95.046636 l
184.817455 95.046636 l
184.817455 94.932133 l
185.223273 94.932133 l
185.223273 94.932133 l
185.223273 94.818625 l
185.629091 94.818625 l
185.629091 94.818625 l
185.629091 94.706101 l
186.034909 94.706101 l
186.034909 94.706101 l
186.034909 94.594546 l
186.846545 94.483949 l
186.846545 94.483949 l
186.846545 94.374298 l
187.658182 94.265579 l
187.658182 94.265579 l
187.658182 94.157782 l
188.469818 94.050895 l
188.469818 94.050895 l
188.469818 93.944905 l
189.281455 93.839803 l
189.281455 93.839803 l
189.281455 93.735577 l
190.093091 93.632215 l
190.093091 93.632215 l
190.093091 93.529708 l
190.904727 93.428044 l
190.904727 93.428044 l
190.904727 93.327214 l
191.716364 93.227207 l
191.716364 93.227207 l
191.716364 93.128013 l
192.528 93.029622 l
192.528 93.029622 l
192.528 92.932024 l
193.339636 92.835211 l
193.339636 92.835211 l
193.339636 92.739172 l
194.151273 92.643898 l
194.151273 92.643898 l
194.151273 92.54938 l
194.962909 92.45561 l
194.962909 92.45561 l
194.962909 92.362578 l
195.774545 92.270275 l
195.774545 92.270275 l
195.774545 92.178694 l
196.586182 92.087825 l
196.586182 92.087825 l
196.586182 91.997661 l
197.397818 91.908193 l
197.397818 91.908193 l
197.397818 91.819413 l
198.209455 91.731314 l
198.209455 91.731314 l
198.209455 91.643887 l
199.021091 91.557125 l
199.021091 91.557125 l
199.021091 91.47102 l
199.832727 91.385565 l
199.832727 91.385565 l
199.832727 91.300753 l
200.644364 91.216576 l
200.644364 91.216576 l
200.644364 91.133027 l
201.456 91.050099 l
201.456 91.050099 l
201.456 90.967785 l
202.267636 90.886079 l
202.267636 90.886079 l
202.267636 90.804974 l
203.079273 90.724463 l
203.079273 90.724463 l
203.079273 90.64454 l
203.890909 90.565197 l
203.890909 90.565197 l
203.890909 90.48643 l
204.702545 90.408232 l
204.702545 90.408232 l
204.702545 90.330596 l
205.514182 90.253517 l
205.514182 90.253517 l
205.514182 90.176988 l
206.325818 90.101004 l
206.325818 90.101004 l
206.325818 90.025558 l
207.137455 89.950646 l
207.137455 89.950646 l
207.137455 89.876262 l
207.949091 89.802399 l
207.949091 89.802399 l
207.949091 89.729053 l
208.760727 89.656219 l
208.760727 89.656219 l
208.760727 89.58389 l
209.572364 89.512061 l
209.572364 89.512061 l
209.572364 89.440728 l
210.384 89.369885 l
210.384 89.369885 l
210.384 89.299527 l
211.195636 89.22965 l
211.195636 89.22965 l
211.195636 89.160248 l
212.007273 89.091317 l
212.007273 89.091317 l
212.007273 89.022851 l
212.818909 88.954846 l
212.818909 88.954846 l
212.818909 88.887298 l
213.630545 88.820201 l
213.630545 88.820201 l
213.630545 88.753552 l
214.442182 88.687346 l
214.442182 88.687346 l
214.442182 88.621578 l
215.253818 88.556244 l
215.253818 88.556244 l
215.253818 88.49134 l
216.065455 88.426862 l
216.065455 88.426862 l
216.065455 88.362805 l
216.877091 88.299166 l
216.877091 88.299166 l
216.877091 88.235939 l
217.688727 88.173122 l
217.688727 88.173122 l
217.688727 88.11071 l
218.500364 88.0487 l
218.500364 88.0487 l
218.500364 87.987087 l
219.312 87.925868 l
219.312 87.925868 l
219.312 87.865038 l
220.123636 87.804595 l
220.123636 87.804595 l
220.123636 87.744535 l
220.935273 87.684853 l
220.935273 87.684853 l
220.935273 87.625547 l
221.746909 87.566612 l
221.746909 87.566612 l
221.746909 87.508046 l
222.558545 87.449845 l
222.558545 87.449845 l
222.558545 87.392005 l
223.370182 87.334524 l
223.370182 87.334524 l
223.370182 87.277397 l
224.181818 87.220622 l
224.181818 87.220622 l
224.181818 87.164195 l
224.993455 87.108113 l
224.993455 87.108113 l
224.993455 87.052373 l
226.210909 86.941907 l
226.210909 86.941907 l
226.210909 86.887174 l
227.428364 86.778696 l
227.428364 86.778696 l
227.428364 86.724943 l
228.645818 86.618399 l
228.645818 86.618399 l
228.645818 86.565601 l
229.863273 86.460939 l
229.863273 86.460939 l
229.863273 86.40907 l
231.080727 86.306242 l
231.080727 86.306242 l
231.080727 86.255278 l
232.298182 86.154235 l
232.298182 86.154235 l
232.298182 86.104152 l
233.515636 86.004849 l
233.515636 86.004849 l
233.515636 85.955624 l
234.733091 85.858017 l
234.733091 85.858017 l
234.733091 85.809629 l
235.950545 85.713673 l
235.950545 85.713673 l
235.950545 85.6661 l
237.168 85.571755 l
237.168 85.571755 l
237.168 85.524978 l
238.385455 85.432203 l
238.385455 85.432203 l
238.385455 85.386201 l
239.602909 85.294957 l
239.602909 85.294957 l
239.602909 85.249711 l
240.820364 85.159961 l
240.820364 85.159961 l
240.820364 85.115453 l
242.037818 85.02716 l
242.037818 85.02716 l
242.037818 84.983372 l
243.255273 84.896501 l
243.255273 84.896501 l
243.255273 84.853415 l
244.472727 84.767933 l
244.472727 84.767933 l
244.472727 84.725532 l
245.690182 84.641405 l
245.690182 84.641405 l
245.690182 84.599674 l
246.907636 84.51687 l
246.907636 84.51687 l
246.907636 84.475793 l
248.125091 84.394281 l
248.125091 84.394281 l
248.125091 84.353842 l
249.342545 84.273592 l
249.342545 84.273592 l
249.342545 84.233777 l
250.56 84.15476 l
250.56 84.15476 l
250.56 84.115555 l
251.777455 84.037743 l
251.777455 84.037743 l
251.777455 83.999133 l
252.994909 83.922498 l
252.994909 83.922498 l
252.994909 83.88447 l
254.212364 83.808987 l
254.212364 83.808987 l
254.212364 83.771528 l
255.429818 83.697169 l
255.429818 83.697169 l
255.429818 83.660267 l
257.053091 83.55065 l
257.053091 83.55065 l
257.053091 83.51447 l
258.676364 83.406989 l
258.676364 83.406989 l
258.676364 83.371511 l
260.299636 83.266105 l
260.299636 83.266105 l
260.299636 83.231308 l
261.922909 83.127917 l
261.922909 83.127917 l
261.922909 83.093782 l
263.546182 82.992349 l
263.546182 82.992349 l
263.546182 82.958857 l
265.169455 82.859326 l
265.169455 82.859326 l
265.169455 82.82646 l
266.792727 82.728778 l
266.792727 82.728778 l
266.792727 82.69652 l
268.416 82.600637 l
268.416 82.600637 l
268.416 82.56897 l
270.039273 82.474837 l
270.039273 82.474837 l
270.039273 82.443745 l
271.662545 82.351313 l
271.662545 82.351313 l
271.662545 82.32078 l
273.285818 82.230005 l
273.285818 82.230005 l
273.285818 82.200017 l
274.909091 82.110853 l
274.909091 82.110853 l
274.909091 82.081395 l
276.532364 81.993801 l
276.532364 81.993801 l
276.532364 81.96486 l
278.155636 81.878794 l
278.155636 81.878794 l
278.155636 81.850355 l
279.778909 81.765778 l
279.778909 81.765778 l
279.778909 81.737829 l
281.808 81.62723 l
281.808 81.62723 l
281.808 81.599876 l
283.837091 81.491618 l
283.837091 81.491618 l
283.837091 81.46484 l
285.866182 81.358849 l
285.866182 81.358849 l
285.866182 81.332629 l
287.895273 81.228835 l
287.895273 81.228835 l
287.895273 81.203155 l
289.924364 81.10149 l
289.924364 81.10149 l
289.924364 81.076334 l
291.953455 80.976734 l
291.953455 80.976734 l
291.953455 80.952086 l
293.982545 80.854487 l
293.982545 80.854487 l
293.982545 80.830333 l
296.011636 80.734676 l
296.011636 80.734676 l
296.011636 80.711 l
298.040727 80.617228 l
298.040727 80.617228 l
298.040727 80.594016 l
300.069818 80.502074 l
300.069818 80.502074 l
300.069818 80.479313 l
302.098909 80.389148 l
302.098909 80.389148 l
302.098909 80.366824 l
304.533818 80.256486 l
304.533818 80.256486 l
304.533818 80.234671 l
306.968727 80.126833 l
306.968727 80.126833 l
306.968727 80.10551 l
309.403636 80.000089 l
309.403636 80.000089 l
309.403636 79.979241 l
311.838545 79.876156 l
311.838545 79.876156 l
311.838545 79.855767 l
314.273455 79.754941 l
314.273455 79.754941 l
314.273455 79.734997 l
316.708364 79.636357 l
316.708364 79.636357 l
316.708364 79.616843 l
319.143273 79.520319 l
319.143273 79.520319 l
319.143273 79.501221 l
321.578182 79.406745 l
321.578182 79.406745 l
321.578182 79.38805 l
324.418909 79.277254 l
324.418909 79.277254 l
324.418909 79.259014 l
327.259636 79.150894 l
327.259636 79.150894 l
327.259636 79.133091 l
330.100364 79.027552 l
330.100364 79.027552 l
330.100364 79.010172 l
332.941091 78.907123 l
332.941091 78.907123 l
332.941091 78.89015 l
335.781818 78.789503 l
335.781818 78.789503 l
335.781818 78.772924 l
338.622545 78.674597 l
338.622545 78.674597 l
338.622545 78.658397 l
341.463273 78.56231 l
341.463273 78.56231 l
341.463273 78.546478 l
344.709818 78.437077 l
344.709818 78.437077 l
344.709818 78.421649 l
347.956364 78.315025 l
347.956364 78.315025 l
347.956364 78.299986 l
351.202909 78.196033 l
351.202909 78.196033 l
351.202909 78.181369 l
354.449455 78.079989 l
354.449455 78.079989 l
354.449455 78.065685 l
357.696 77.966784 l
357.696 77.966784 l
357.696 77.952828 l
361.348364 77.842693 l
361.348364 77.842693 l
361.348364 77.829113 l
365.000727 77.721927 l
365.000727 77.721927 l
365.000727 77.708708 l
368.653091 77.604352 l
368.653091 77.604352 l
368.653091 77.59148 l
372.305455 77.489845 l
372.305455 77.489845 l
372.305455 77.477306 l
375.957818 77.378286 l
375.957818 77.378286 l
375.957818 77.366068 l
380.016 77.257654 l
380.016 77.257654 l
380.016 77.245777 l
384.074182 77.140377 l
384.074182 77.140377 l
384.074182 77.128829 l
388.132364 77.026318 l
388.132364 77.026318 l
388.132364 77.015084 l
392.596364 76.904413 l
392.596364 76.904413 l
392.596364 76.89351 l
397.060364 76.786079 l
397.060364 76.786079 l
397.060364 76.775494 l
401.524364 76.671162 l
401.524364 76.671162 l
401.524364 76.66088 l
405.988364 76.559516 l
405.988364 76.559516 l
405.988364 76.549523 l
410.858182 76.441288 l
410.858182 76.441288 l
410.858182 76.431599 l
415.728 76.326621 l
415.728 76.326621 l
415.728 76.317221 l
421.003636 76.206231 l
421.003636 76.206231 l
421.003636 76.197131 l
426.279273 76.089646 l
426.279273 76.089646 l
426.279273 76.08083 l
431.554909 75.976686 l
431.554909 75.976686 l
431.554909 75.968142 l
437.236364 75.858901 l
437.236364 75.858901 l
437.236364 75.850636 l
442.917818 75.744933 l
442.917818 75.744933 l
442.917818 75.736934 l
449.005091 75.626853 l
449.005091 75.626853 l
449.005091 75.619124 l
455.092364 75.512736 l
455.092364 75.512736 l
455.092364 75.505264 l
461.585455 75.395157 l
461.585455 75.395157 l
461.585455 75.387946 l
468.078545 75.281642 l
468.078545 75.281642 l
468.078545 75.274677 l
474.977455 75.165252 l
474.977455 75.165252 l
474.977455 75.158536 l
481.876364 75.052985 l
481.876364 75.052985 l
481.876364 75.046505 l
489.181091 74.938368 l
489.181091 74.938368 l
489.181091 74.932124 l
496.891636 74.821873 l
496.891636 74.821873 l
496.891636 74.815865 l
498.109091 74.803884 l
498.109091 68.825455 l
498.109091 68.825455 l
stroke
grestore
0.129 0.443 0.710 setrgbcolor
gsave
446.4 326.2 72 54 clipbox
92.290909 68.825455 m
116.234182 68.825455 l
116.234182 68.825455 l
116.234182 365.334545 l
116.64 365.334545 l
116.64 365.334545 l
116.64 355.692621 l
117.045818 355.692621 l
117.045818 355.692621 l
117.045818 346.513469 l
117.451636 346.513469 l
117.451636 346.513469 l
117.451636 337.767941 l
117.857455 337.767941 l
117.857455 337.767941 l
117.857455 329.429148 l
118.263273 329.429148 l
118.263273 329.429148 l
118.263273 321.472254 l
118.669091 321.472254 l
118.669091 321.472254 l
118.669091 313.87429 l
119.074909 313.87429 l
119.074909 313.87429 l
119.074909 306.613988 l
119.480727 306.613988 l
119.480727 306.613988 l
119.480727 299.671633 l
119.886545 299.671633 l
119.886545 299.671633 l
119.886545 293.028926 l
120.292364 293.028926 l
120.292364 293.028926 l
120.292364 286.668868 l
120.698182 286.668868 l
120.698182 286.668868 l
120.698182 280.575648 l
121.104 280.575648 l
121.104 280.575648 l
121.104 274.734545 l
121.509818 274.734545 l
121.509818 274.734545 l
121.509818 269.13184 l
121.915636 269.13184 l
121.915636 269.13184 l
121.915636 263.754733 l
122.321455 263.754733 l
122.321455 263.754733 l
122.321455 258.591273 l
122.727273 258.591273 l
122.727273 258.591273 l
122.727273 253.63029 l
123.133091 253.63029 l
123.133091 253.63029 l
123.133091 248.861334 l
123.538909 248.861334 l
123.538909 248.861334 l
123.538909 244.274621 l
123.944727 244.274621 l
123.944727 244.274621 l
123.944727 239.860982 l
124.350545 239.860982 l
124.350545 239.860982 l
124.350545 235.611818 l
124.756364 235.611818 l
124.756364 235.611818 l
124.756364 231.519057 l
125.162182 231.519057 l
125.162182 231.519057 l
125.162182 227.575117 l
125.568 227.575117 l
125.568 227.575117 l
125.568 223.772867 l
125.973818 223.772867 l
125.973818 223.772867 l
125.973818 220.105603 l
126.379636 220.105603 l
126.379636 220.105603 l
126.379636 216.567008 l
126.785455 216.567008 l
126.785455 216.567008 l
126.785455 213.151134 l
127.191273 213.151134 l
127.191273 213.151134 l
127.191273 209.852371 l
127.597091 209.852371 l
127.597091 209.852371 l
127.597091 206.665424 l
128.002909 206.665424 l
128.002909 206.665424 l
128.002909 203.585299 l
128.408727 203.585299 l
128.408727 203.585299 l
128.408727 200.607273 l
128.814545 200.607273 l
128.814545 200.607273 l
128.814545 197.726883 l
129.220364 197.726883 l
129.220364 197.726883 l
129.220364 194.939907 l
129.626182 194.939907 l
129.626182 194.939907 l
129.626182 192.24235 l
130.032 192.24235 l
130.032 192.24235 l
130.032 189.630426 l
130.437818 189.630426 l
130.437818 189.630426 l
130.437818 187.100549 l
130.843636 187.100549 l
130.843636 187.100549 l
130.843636 184.649318 l
131.249455 184.649318 l
131.249455 184.649318 l
131.249455 182.273507 l
131.655273 182.273507 l
131.655273 182.273507 l
131.655273 179.970053 l
132.061091 179.970053 l
132.061091 179.970053 l
132.061091 177.736048 l
132.466909 177.736048 l
132.466909 177.736048 l
132.466909 175.568727 l
132.872727 175.568727 l
132.872727 175.568727 l
132.872727 173.465463 l
133.278545 173.465463 l
133.278545 173.465463 l
133.278545 171.423756 l
133.684364 171.423756 l
133.684364 171.423756 l
133.684364 169.441227 l
134.090182 169.441227 l
134.090182 169.441227 l
134.090182 167.515611 l
134.496 167.515611 l
134.496 167.515611 l
134.496 165.64475 l
134.901818 165.64475 l
134.901818 165.64475 l
134.901818 163.826587 l
135.307636 163.826587 l
135.307636 163.826587 l
135.307636 162.059163 l
135.713455 162.059163 l
135.713455 162.059163 l
135.713455 160.340606 l
136.119273 160.340606 l
136.119273 160.340606 l
136.119273 158.669132 l
136.525091 158.669132 l
136.525091 158.669132 l
136.525091 157.043035 l
136.930909 157.043035 l
136.930909 157.043035 l
136.930909 155.460689 l
137.336727 155.460689 l
137.336727 155.460689 l
137.336727 153.920538 l
137.742545 153.920538 l
137.742545 153.920538 l
137.742545 152.421095 l
138.148364 152.421095 l
138.148364 152.421095 l
138.148364 150.960937 l
138.554182 150.960937 l
138.554182 150.960937 l
138.554182 149.538704 l
138.96 149.538704 l
138.96 149.538704 l
138.96 148.153095 l
139.365818 148.153095 l
139.365818 148.153095 l
139.365818 146.802862 l
139.771636 146.802862 l
139.771636 146.802862 l
139.771636 145.486811 l
140.177455 145.486811 l
140.177455 145.486811 l
140.177455 144.203798 l
140.583273 144.203798 l
140.583273 144.203798 l
140.583273 142.952727 l
140.989091 142.952727 l
140.989091 142.952727 l
140.989091 141.732546 l
141.394909 141.732546 l
141.394909 141.732546 l
141.394909 140.542246 l
141.800727 140.542246 l
141.800727 140.542246 l
141.800727 139.38086 l
142.206545 139.38086 l
142.206545 139.38086 l
142.206545 138.247458 l
142.612364 138.247458 l
142.612364 138.247458 l
142.612364 137.141149 l
143.018182 137.141149 l
143.018182 137.141149 l
143.018182 136.061076 l
143.424 136.061076 l
143.424 136.061076 l
143.424 135.006416 l
143.829818 135.006416 l
143.829818 135.006416 l
143.829818 133.976378 l
144.235636 133.976378 l
144.235636 133.976378 l
144.235636 132.970201 l
144.641455 132.970201 l
144.641455 132.970201 l
144.641455 131.987154 l
145.047273 131.987154 l
145.047273 131.987154 l
145.047273 131.026534 l
145.453091 131.026534 l
145.453091 131.026534 l
145.453091 130.087663 l
145.858909 130.087663 l
145.858909 130.087663 l
145.858909 129.16989 l
146.264727 129.16989 l
146.264727 129.16989 l
146.264727 128.272588 l
146.670545 128.272588 l
146.670545 128.272588 l
146.670545 127.395152 l
147.076364 127.395152 l
147.076364 127.395152 l
147.076364 126.536999 l
147.482182 126.536999 l
147.482182 126.536999 l
147.482182 125.69757 l
147.888 125.69757 l
147.888 125.69757 l
147.888 124.876322 l
148.293818 124.876322 l
148.293818 124.876322 l
148.293818 124.072736 l
148.699636 124.072736 l
148.699636 124.072736 l
148.699636 123.286308 l
149.105455 123.286308 l
149.105455 123.286308 l
149.105455 122.516553 l
149.511273 122.516553 l
149.511273 122.516553 l
149.511273 121.763003 l
149.917091 121.763003 l
149.917091 121.763003 l
149.917091 121.025206 l
150.322909 121.025206 l
150.322909 121.025206 l
150.322909 120.302727 l
150.728727 120.302727 l
150.728727 120.302727 l
150.728727 119.595144 l
151.134545 119.595144 l
151.134545 119.595144 l
151.134545 118.902051 l
151.540364 118.902051 l
151.540364 118.902051 l
151.540364 118.223054 l
151.946182 118.223054 l
151.946182 118.223054 l
151.946182 117.557774 l
152.352 117.557774 l
152.352 117.557774 l
152.352 116.905844 l
152.757818 116.905844 l
152.757818 116.905844 l
152.757818 116.266909 l
153.163636 116.266909 l
153.163636 116.266909 l
153.163636 115.640626 l
153.569455 115.640626 l
153.569455 115.640626 l
153.569455 115.026663 l
153.975273 115.026663 l
153.975273 115.026663 l
153.975273 114.4247 l
154.381091 114.4247 l
154.381091 114.4247 l
154.381091 113.834424 l
154.786909 113.834424 l
154.786909 113.834424 l
154.786909 113.255537 l
155.192727 113.255537 l
155.192727 113.255537 l
155.192727 112.687746 l
155.598545 112.687746 l
155.598545 112.687746 l
155.598545 112.13077 l
156.004364 112.13077 l
156.004364 112.13077 l
156.004364 111.584336 l
156.410182 111.584336 l
156.410182 111.584336 l
156.410182 111.04818 l
156.816 111.04818 l
156.816 111.04818 l
156.816 110.522045 l
157.221818 110.522045 l
157.221818 110.522045 l
157.221818 110.005684 l
157.627636 110.005684 l
157.627636 110.005684 l
157.627636 109.498855 l
158.033455 109.498855 l
158.033455 109.498855 l
158.033455 109.001326 l
158.439273 109.001326 l
158.439273 109.001326 l
158.439273 108.51287 l
158.845091 108.51287 l
158.845091 108.51287 l
158.845091 108.033268 l
159.250909 108.033268 l
159.250909 108.033268 l
159.250909 107.562308 l
159.656727 107.562308 l
159.656727 107.562308 l
159.656727 107.099782 l
160.062545 107.099782 l
160.062545 107.099782 l
160.062545 106.645492 l
160.468364 106.645492 l
160.468364 106.645492 l
160.468364 106.199241 l
160.874182 106.199241 l
160.874182 106.199241 l
160.874182 105.760843 l
161.28 105.760843 l
161.28 105.760843 l
161.28 105.330113 l
161.685818 105.330113 l
161.685818 105.330113 l
161.685818 104.906874 l
162.091636 104.906874 l
162.091636 104.906874 l
162.091636 104.490954 l
162.497455 104.490954 l
162.497455 104.490954 l
162.497455 104.082184 l
162.903273 104.082184 l
162.903273 104.082184 l
162.903273 103.680401 l
163.309091 103.680401 l
163.309091 103.680401 l
163.309091 103.285447 l
163.714909 103.285447 l
163.714909 103.285447 l
163.714909 102.897169 l
164.120727 102.897169 l
164.120727 102.897169 l
164.120727 102.515416 l
164.526545 102.515416 l
164.526545 102.515416 l
164.526545 102.140043 l
164.932364 102.140043 l
164.932364 102.140043 l
164.932364 101.770909 l
165.338182 101.770909 l
165.338182 101.770909 l
165.338182 101.407877 l
165.744 101.407877 l
165.744 101.407877 l
165.744 101.050812 l
166.149818 101.050812 l
166.149818 101.050812 l
166.149818 100.699584 l
166.555636 100.699584 l
166.555636 100.699584 l
166.555636 100.354068 l
166.961455 100.354068 l
166.961455 100.354068 l
166.961455 100.014139 l
167.367273 100.014139 l
167.367273 100.014139 l
167.367273 99.679678 l
167.773091 99.679678 l
167.773091 99.679678 l
167.773091 99.350569 l
168.178909 99.350569 l
168.178909 99.350569 l
168.178909 99.026697 l
168.584727 99.026697 l
168.584727 99.026697 l
168.584727 98.707953 l
168.990545 98.707953 l
168.990545 98.707953 l
168.990545 98.394228 l
169.396364 98.394228 l
169.396364 98.394228 l
169.396364 98.085418 l
169.802182 98.085418 l
169.802182 98.085418 l
169.802182 97.78142 l
170.208 97.78142 l
170.208 97.78142 l
170.208 97.482136 l
170.613818 97.482136 l
170.613818 97.482136 l
170.613818 97.187468 l
171.019636 97.187468 l
171.019636 97.187468 l
171.019636 96.897321 l
171.425455 96.897321 l
171.425455 96.897321 l
171.425455 96.611604 l
171.831273 96.611604 l
171.831273 96.611604 l
171.831273 96.330227 l
172.237091 96.330227 l
172.237091 96.330227 l
172.237091 96.053103 l
172.642909 96.053103 l
172.642909 96.053103 l
172.642909 95.780146 l
173.048727 95.780146 l
173.048727 95.780146 l
173.048727 95.511273 l
173.454545 95.511273 l
173.454545 95.511273 l
173.454545 95.246403 l
173.860364 95.246403 l
173.860364 95.246403 l
173.860364 94.985457 l
174.266182 94.985457 l
174.266182 94.985457 l
174.266182 94.728357 l
174.672 94.728357 l
174.672 94.728357 l
174.672 94.47503 l
175.077818 94.47503 l
175.077818 94.47503 l
175.077818 94.2254 l
175.483636 94.2254 l
175.483636 94.2254 l
175.483636 93.979398 l
175.889455 93.979398 l
175.889455 93.979398 l
175.889455 93.736951 l
176.295273 93.736951 l
176.295273 93.736951 l
176.295273 93.497994 l
176.701091 93.497994 l
176.701091 93.497994 l
176.701091 93.262458 l
177.106909 93.262458 l
177.106909 93.262458 l
177.106909 93.030278 l
177.512727 93.030278 l
177.512727 93.030278 l
177.512727 92.801392 l
177.918545 92.801392 l
177.918545 92.801392 l
177.918545 92.575738 l
178.324364 92.575738 l
178.324364 92.575738 l
178.324364 92.353254 l
178.730182 92.353254 l
178.730182 92.353254 l
178.730182 92.133882 l
179.136 92.133882 l
179.136 92.133882 l
179.136 91.917563 l
179.541818 91.917563 l
179.541818 91.917563 l
179.541818 91.704242 l
179.947636 91.704242 l
179.947636 91.704242 l
179.947636 91.493864 l
180.353455 91.493864 l
180.353455 91.493864 l
180.353455 91.286374 l
180.759273 91.286374 l
180.759273 91.286374 l
180.759273 91.08172 l
181.165091 91.08172 l
181.165091 91.08172 l
181.165091 90.87985 l
181.570909 90.87985 l
181.570909 90.87985 l
181.570909 90.680714 l
181.976727 90.680714 l
181.976727 90.680714 l
181.976727 90.484263 l
182.382545 90.484263 l
182.382545 90.484263 l
182.382545 90.290449 l
182.788364 90.290449 l
182.788364 90.290449 l
182.788364 90.099225 l
183.194182 90.099225 l
183.194182 90.099225 l
183.194182 89.910545 l
183.6 89.910545 l
183.6 89.910545 l
183.6 89.724365 l
184.005818 89.724365 l
184.005818 89.724365 l
184.005818 89.540639 l
184.411636 89.540639 l
184.411636 89.540639 l
184.411636 89.359325 l
184.817455 89.359325 l
184.817455 89.359325 l
184.817455 89.180382 l
185.223273 89.180382 l
185.223273 89.180382 l
185.223273 89.003767 l
185.629091 89.003767 l
185.629091 89.003767 l
185.629091 88.829441 l
186.034909 88.829441 l
186.034909 88.829441 l
186.034909 88.657365 l
186.440727 88.657365 l
186.440727 88.657365 l
186.440727 88.487499 l
186.846545 88.487499 l
186.846545 88.487499 l
186.846545 88.319806 l
187.252364 88.319806 l
187.252364 88.319806 l
187.252364 88.15425 l
187.658182 88.15425 l
187.658182 88.15425 l
187.658182 87.990794 l
188.064 87.990794 l
188.064 87.990794 l
188.064 87.829402 l
188.469818 87.829402 l
188.469818 87.829402 l
188.469818 87.670041 l
188.875636 87.670041 l
188.875636 87.670041 l
188.875636 87.512675 l
189.281455 87.512675 l
189.281455 87.512675 l
189.281455 87.357273 l
189.687273 87.357273 l
189.687273 87.357273 l
189.687273 87.203801 l
190.093091 87.203801 l
190.093091 87.203801 l
190.093091 87.052227 l
190.498909 87.052227 l
190.498909 87.052227 l
190.498909 86.902522 l
190.904727 86.902522 l
190.904727 86.902522 l
190.904727 86.754652 l
191.310545 86.754652 l
191.310545 86.754652 l
191.310545 86.60859 l
191.716364 86.60859 l
191.716364 86.60859 l
191.716364 86.464306 l
192.122182 86.464306 l
192.122182 86.464306 l
192.122182 86.32177 l
192.528 86.32177 l
192.528 86.32177 l
192.528 86.180955 l
192.933818 86.180955 l
192.933818 86.180955 l
192.933818 86.041834 l
193.339636 86.041834 l
193.339636 86.041834 l
193.339636 85.904378 l
193.745455 85.904378 l
193.745455 85.904378 l
193.745455 85.768562 l
194.151273 85.768562 l
194.151273 85.768562 l
194.151273 85.63436 l
194.557091 85.63436 l
194.557091 85.63436 l
194.557091 85.501746 l
194.962909 85.501746 l
194.962909 85.501746 l
194.962909 85.370695 l
195.368727 85.370695 l
195.368727 85.370695 l
195.368727 85.241183 l
195.774545 85.241183 l
195.774545 85.241183 l
195.774545 85.113185 l
196.180364 85.113185 l
196.180364 85.113185 l
196.180364 84.986679 l
196.586182 84.986679 l
196.586182 84.986679 l
196.586182 84.861641 l
196.992 84.861641 l
196.992 84.861641 l
196.992 84.738049 l
197.397818 84.738049 l
197.397818 84.738049 l
197.397818 84.61588 l
197.803636 84.61588 l
197.803636 84.61588 l
197.803636 84.495112 l
198.209455 84.495112 l
198.209455 84.495112 l
198.209455 84.375724 l
198.615273 84.375724 l
198.615273 84.375724 l
198.615273 84.257696 l
199.021091 84.257696 l
199.021091 84.257696 l
199.021091 84.141007 l
199.426909 84.141007 l
199.426909 84.141007 l
199.426909 84.025636 l
199.832727 84.025636 l
199.832727 84.025636 l
199.832727 83.911564 l
200.238545 83.911564 l
200.238545 83.911564 l
200.238545 83.798771 l
200.644364 83.798771 l
200.644364 83.798771 l
200.644364 83.687238 l
201.456 83.576947 l
201.456 83.576947 l
201.456 83.467879 l
202.267636 83.360016 l
202.267636 83.360016 l
202.267636 83.253341 l
203.079273 83.147835 l
203.079273 83.147835 l
203.079273 83.043483 l
203.890909 82.940267 l
203.890909 82.940267 l
203.890909 82.838172 l
204.702545 82.737179 l
204.702545 82.737179 l
204.702545 82.637275 l
205.514182 82.538443 l
205.514182 82.538443 l
205.514182 82.440668 l
206.325818 82.343935 l
206.325818 82.343935 l
206.325818 82.248229 l
207.137455 82.153536 l
207.137455 82.153536 l
207.137455 82.059842 l
207.949091 81.967132 l
207.949091 81.967132 l
207.949091 81.875393 l
208.760727 81.784611 l
208.760727 81.784611 l
208.760727 81.694773 l
209.572364 81.605866 l
209.572364 81.605866 l
209.572364 81.517877 l
210.384 81.430794 l
210.384 81.430794 l
210.384 81.344604 l
211.195636 81.259295 l
211.195636 81.259295 l
211.195636 81.174854 l
212.007273 81.091272 l
212.007273 81.091272 l
212.007273 81.008534 l
212.818909 80.926632 l
212.818909 80.926632 l
212.818909 80.845552 l
213.630545 80.765284 l
213.630545 80.765284 l
213.630545 80.685818 l
214.442182 80.607143 l
214.442182 80.607143 l
214.442182 80.529247 l
215.253818 80.452122 l
215.253818 80.452122 l
215.253818 80.375757 l
216.065455 80.300141 l
216.065455 80.300141 l
216.065455 80.225266 l
216.877091 80.151121 l
216.877091 80.151121 l
216.877091 80.077697 l
217.688727 80.004985 l
217.688727 80.004985 l
217.688727 79.932975 l
218.500364 79.861659 l
218.500364 79.861659 l
218.500364 79.791027 l
219.312 79.721072 l
219.312 79.721072 l
219.312 79.651783 l
220.123636 79.583154 l
220.123636 79.583154 l
220.123636 79.515175 l
220.935273 79.447838 l
220.935273 79.447838 l
220.935273 79.381136 l
221.746909 79.31506 l
221.746909 79.31506 l
221.746909 79.249602 l
222.558545 79.184755 l
222.558545 79.184755 l
222.558545 79.120512 l
223.370182 79.056864 l
223.370182 79.056864 l
223.370182 78.993805 l
224.181818 78.931327 l
224.181818 78.931327 l
224.181818 78.869422 l
224.993455 78.808085 l
224.993455 78.808085 l
224.993455 78.747308 l
225.805091 78.687085 l
225.805091 78.687085 l
225.805091 78.627408 l
226.616727 78.568271 l
226.616727 78.568271 l
226.616727 78.509668 l
227.428364 78.451592 l
227.428364 78.451592 l
227.428364 78.394036 l
228.24 78.336996 l
228.24 78.336996 l
228.24 78.280464 l
229.051636 78.224434 l
229.051636 78.224434 l
229.051636 78.168901 l
230.269091 78.059302 l
230.269091 78.059302 l
230.269091 78.005224 l
231.486545 77.898483 l
231.486545 77.898483 l
231.486545 77.84581 l
232.704 77.741829 l
232.704 77.741829 l
232.704 77.690512 l
233.921455 77.589198 l
233.921455 77.589198 l
233.921455 77.539191 l
235.138909 77.440453 l
235.138909 77.440453 l
235.138909 77.391712 l
236.356364 77.295462 l
236.356364 77.295462 l
236.356364 77.247945 l
237.573818 77.154102 l
237.573818 77.154102 l
237.573818 77.107767 l
238.791273 77.016251 l
238.791273 77.016251 l
238.791273 76.97106 l
240.008727 76.881794 l
240.008727 76.881794 l
240.008727 76.83771 l
241.226182 76.750621 l
241.226182 76.750621 l
241.226182 76.707608 l
242.443636 76.622626 l
242.443636 76.622626 l
242.443636 76.580649 l
243.661091 76.497706 l
243.661091 76.497706 l
243.661091 76.456733 l
244.878545 76.375765 l
244.878545 76.375765 l
244.878545 76.335764 l
246.096 76.256708 l
246.096 76.256708 l
246.096 76.217648 l
247.313455 76.140445 l
247.313455 76.140445 l
247.313455 76.102297 l
248.530909 76.02689 l
248.530909 76.02689 l
248.530909 75.989625 l
250.154182 75.87955 l
250.154182 75.87955 l
250.154182 75.843421 l
251.777455 75.736686 l
251.777455 75.736686 l
251.777455 75.701648 l
253.400727 75.598118 l
253.400727 75.598118 l
253.400727 75.564127 l
255.024 75.463676 l
255.024 75.463676 l
255.024 75.430692 l
256.647273 75.333199 l
256.647273 75.333199 l
256.647273 75.30118 l
258.270545 75.20653 l
258.270545 75.20653 l
258.270545 75.175441 l
259.893818 75.083524 l
259.893818 75.083524 l
259.893818 75.053329 l
261.517091 74.964041 l
261.517091 74.964041 l
261.517091 74.934705 l
263.140364 74.847948 l
263.140364 74.847948 l
263.140364 74.819439 l
264.763636 74.735117 l
264.763636 74.735117 l
264.763636 74.707404 l
266.792727 74.598482 l
266.792727 74.598482 l
266.792727 74.571724 l
268.821818 74.466531 l
268.821818 74.466531 l
268.821818 74.440684 l
270.850909 74.339053 l
270.850909 74.339053 l
270.850909 74.314077 l
272.88 74.215848 l
272.88 74.215848 l
272.88 74.191703 l
274.909091 74.096727 l
274.909091 74.096727 l
274.909091 74.073377 l
276.938182 73.981512 l
276.938182 73.981512 l
276.938182 73.958922 l
279.373091 73.848171 l
279.373091 73.848171 l
279.373091 73.826451 l
281.808 73.719937 l
281.808 73.719937 l
281.808 73.699042 l
284.242909 73.596551 l
284.242909 73.596551 l
284.242909 73.576441 l
286.677818 73.477774 l
286.677818 73.477774 l
286.677818 73.458409 l
289.112727 73.363377 l
289.112727 73.363377 l
289.112727 73.344721 l
291.953455 73.235167 l
291.953455 73.235167 l
291.953455 73.217296 l
294.794182 73.112316 l
294.794182 73.112316 l
294.794182 73.095185 l
297.634909 72.994527 l
297.634909 72.994527 l
297.634909 72.978098 l
300.475636 72.881528 l
300.475636 72.881528 l
300.475636 72.865761 l
303.722182 72.757921 l
303.722182 72.757921 l
303.722182 72.742869 l
306.968727 72.63988 l
306.968727 72.63988 l
306.968727 72.6255 l
310.215273 72.527075 l
310.215273 72.527075 l
310.215273 72.513328 l
313.867636 72.40605 l
313.867636 72.40605 l
313.867636 72.39297 l
317.52 72.290864 l
317.52 72.290864 l
317.52 72.27841 l
321.578182 72.16928 l
321.578182 72.16928 l
321.578182 72.157475 l
325.636364 72.053985 l
325.636364 72.053985 l
325.636364 72.042784 l
330.100364 71.933915 l
330.100364 71.933915 l
330.100364 71.923333 l
334.564364 71.82042 l
334.564364 71.82042 l
334.564364 71.810412 l
339.434182 71.703555 l
339.434182 71.703555 l
339.434182 71.694126 l
344.709818 71.584506 l
344.709818 71.584506 l
344.709818 71.575655 l
349.985455 71.472693 l
349.985455 71.472693 l
349.985455 71.464375 l
355.666909 71.359714 l
355.666909 71.359714 l
355.666909 71.351923 l
361.754182 71.246508 l
361.754182 71.246508 l
361.754182 71.239232 l
368.247273 71.133916 l
368.247273 71.133916 l
368.247273 71.127142 l
375.552 71.01639 l
375.552 71.01639 l
375.552 71.010126 l
383.262545 70.901812 l
383.262545 70.901812 l
383.262545 70.896033 l
391.784727 70.785327 l
391.784727 70.785327 l
391.784727 70.780026 l
400.712727 70.673503 l
400.712727 70.673503 l
400.712727 70.668649 l
410.858182 70.557667 l
410.858182 70.557667 l
410.858182 70.553262 l
421.815273 70.444386 l
421.815273 70.444386 l
421.815273 70.440406 l
433.989818 70.331078 l
433.989818 70.331078 l
433.989818 70.327508 l
447.787636 70.216471 l
447.787636 70.216471 l
447.787636 70.213301 l
463.208727 70.103211 l
463.208727 70.103211 l
463.208727 70.10042 l
480.658909 69.990966 l
480.658909 69.990966 l
480.658909 69.988534 l
498.109091 69.892887 l
498.109091 68.825455 l
498.109091 68.825455 l
stroke
grestore
0.800 setlinewidth
0 setlinejoin
[] 0 setdash
0.000 setgray
gsave
72 54 m
72 380.16 l
stroke
grestore
gsave
518.4 54 m
518.4 380.16 l
stroke
grestore
gsave
72 54 m
518.4 54 l
stroke
grestore
gsave
72 380.16 m
518.4 380.16 l
stroke
grestore
1.000 setlinewidth
0 setlinecap
0.800 setgray
gsave
507.4 367.16 m
511.4 367.16 l
512.733333 367.16 513.4 367.826667 513.4 369.16 c
513.4 373.16 l
513.4 374.493333 512.733333 375.16 511.4 375.16 c
507.4 375.16 l
506.066667 375.16 505.4 374.493333 505.4 373.16 c
505.4 369.16 l
505.4 367.826667 506.066667 367.16 507.4 367.16 c
cl
gsave
1.000 setgray
fill
grestore
stroke
grestore

end
showpage
