%!PS-Adobe-3.0 EPSF-3.0
%%Title: train1.eps
%%Creator: matplotlib version 2.2.2, http://matplotlib.org/
%%CreationDate: Thu Jul  5 12:14:03 2018
%%Orientation: portrait
%%BoundingBox: 90 252 522 540
%%EndComments
%%BeginProlog
/mpldict 8 dict def
mpldict begin
/m { moveto } bind def
/l { lineto } bind def
/r { rlineto } bind def
/c { curveto } bind def
/cl { closepath } bind def
/box {
m
1 index 0 r
0 exch r
neg 0 r
cl
} bind def
/clipbox {
box
clip
newpath
} bind def
%!PS-Adobe-3.0 Resource-Font
%%Title: DejaVu Sans
%%Copyright: Copyright (c) 2003 by Bitstream, Inc. All Rights Reserved. Copyright (c) 2006 by Tavmjong Bah. All Rights Reserved. DejaVu changes are in public domain 
%%Creator: Converted from TrueType to type 3 by PPR
25 dict begin
/_d{bind def}bind def
/_m{moveto}_d
/_l{lineto}_d
/_cl{closepath eofill}_d
/_c{curveto}_d
/_sc{7 -1 roll{setcachedevice}{pop pop pop pop pop pop}ifelse}_d
/_e{exec}_d
/FontName /DejaVuSans def
/PaintType 0 def
/FontMatrix[.001 0 0 .001 0 0]def
/FontBBox[-1021 -463 1793 1232]def
/FontType 3 def
/Encoding [ /space /period /zero /one /two /three /four /five /six /eight /N /P /a /b /e /f /i /l /m /n /o /r /s /t /u /y ] def
/FontInfo 10 dict dup begin
/FamilyName (DejaVu Sans) def
/FullName (DejaVu Sans) def
/Notice (Copyright (c) 2003 by Bitstream, Inc. All Rights Reserved. Copyright (c) 2006 by Tavmjong Bah. All Rights Reserved. DejaVu changes are in public domain ) def
/Weight (Book) def
/Version (Version 2.35) def
/ItalicAngle 0.0 def
/isFixedPitch false def
/UnderlinePosition -130 def
/UnderlineThickness 90 def
end readonly def
/CharStrings 27 dict dup begin
/.notdef 0 def
/space{318 0 0 0 0 0 _sc
}_d
/period{318 0 107 0 210 124 _sc
107 124 _m
210 124 _l
210 0 _l
107 0 _l
107 124 _l
_cl}_d
/zero{636 0 66 -13 570 742 _sc
318 664 _m
267 664 229 639 203 589 _c
177 539 165 464 165 364 _c
165 264 177 189 203 139 _c
229 89 267 64 318 64 _c
369 64 407 89 433 139 _c
458 189 471 264 471 364 _c
471 464 458 539 433 589 _c
407 639 369 664 318 664 _c
318 742 _m
399 742 461 709 505 645 _c
548 580 570 486 570 364 _c
570 241 548 147 505 83 _c
461 19 399 -13 318 -13 _c
236 -13 173 19 130 83 _c
87 147 66 241 66 364 _c
66 486 87 580 130 645 _c
173 709 236 742 318 742 _c
_cl}_d
/one{636 0 110 0 544 729 _sc
124 83 _m
285 83 _l
285 639 _l
110 604 _l
110 694 _l
284 729 _l
383 729 _l
383 83 _l
544 83 _l
544 0 _l
124 0 _l
124 83 _l
_cl}_d
/two{{636 0 73 0 536 742 _sc
192 83 _m
536 83 _l
536 0 _l
73 0 _l
73 83 _l
110 121 161 173 226 239 _c
290 304 331 346 348 365 _c
380 400 402 430 414 455 _c
426 479 433 504 433 528 _c
433 566 419 598 392 622 _c
365 646 330 659 286 659 _c
255 659 222 653 188 643 _c
154 632 117 616 78 594 _c
78 694 _l
118 710 155 722 189 730 _c
223 738 255 742 284 742 _c
}_e{359 742 419 723 464 685 _c
509 647 532 597 532 534 _c
532 504 526 475 515 449 _c
504 422 484 390 454 354 _c
446 344 420 317 376 272 _c
332 227 271 164 192 83 _c
_cl}_e}_d
/three{{636 0 76 -13 556 742 _sc
406 393 _m
453 383 490 362 516 330 _c
542 298 556 258 556 212 _c
556 140 531 84 482 45 _c
432 6 362 -13 271 -13 _c
240 -13 208 -10 176 -4 _c
144 1 110 10 76 22 _c
76 117 _l
103 101 133 89 166 81 _c
198 73 232 69 268 69 _c
330 69 377 81 409 105 _c
441 129 458 165 458 212 _c
458 254 443 288 413 312 _c
383 336 341 349 287 349 _c
}_e{202 349 _l
202 430 _l
291 430 _l
339 430 376 439 402 459 _c
428 478 441 506 441 543 _c
441 580 427 609 401 629 _c
374 649 336 659 287 659 _c
260 659 231 656 200 650 _c
169 644 135 635 98 623 _c
98 711 _l
135 721 170 729 203 734 _c
235 739 266 742 296 742 _c
370 742 429 725 473 691 _c
517 657 539 611 539 553 _c
539 513 527 479 504 451 _c
481 423 448 403 406 393 _c
_cl}_e}_d
/four{636 0 49 0 580 729 _sc
378 643 _m
129 254 _l
378 254 _l
378 643 _l
352 729 _m
476 729 _l
476 254 _l
580 254 _l
580 172 _l
476 172 _l
476 0 _l
378 0 _l
378 172 _l
49 172 _l
49 267 _l
352 729 _l
_cl}_d
/five{{636 0 77 -13 549 729 _sc
108 729 _m
495 729 _l
495 646 _l
198 646 _l
198 467 _l
212 472 227 476 241 478 _c
255 480 270 482 284 482 _c
365 482 429 459 477 415 _c
525 370 549 310 549 234 _c
549 155 524 94 475 51 _c
426 8 357 -13 269 -13 _c
238 -13 207 -10 175 -6 _c
143 -1 111 6 77 17 _c
77 116 _l
106 100 136 88 168 80 _c
199 72 232 69 267 69 _c
}_e{323 69 368 83 401 113 _c
433 143 450 183 450 234 _c
450 284 433 324 401 354 _c
368 384 323 399 267 399 _c
241 399 214 396 188 390 _c
162 384 135 375 108 363 _c
108 729 _l
_cl}_e}_d
/six{{636 0 70 -13 573 742 _sc
330 404 _m
286 404 251 388 225 358 _c
199 328 186 286 186 234 _c
186 181 199 139 225 109 _c
251 79 286 64 330 64 _c
374 64 409 79 435 109 _c
461 139 474 181 474 234 _c
474 286 461 328 435 358 _c
409 388 374 404 330 404 _c
526 713 _m
526 623 _l
501 635 476 644 451 650 _c
425 656 400 659 376 659 _c
310 659 260 637 226 593 _c
}_e{192 549 172 482 168 394 _c
187 422 211 444 240 459 _c
269 474 301 482 336 482 _c
409 482 467 459 509 415 _c
551 371 573 310 573 234 _c
573 159 550 99 506 54 _c
462 9 403 -13 330 -13 _c
246 -13 181 19 137 83 _c
92 147 70 241 70 364 _c
70 479 97 571 152 639 _c
206 707 280 742 372 742 _c
396 742 421 739 447 735 _c
472 730 498 723 526 713 _c
_cl}_e}_d
/eight{{636 0 68 -13 568 742 _sc
318 346 _m
271 346 234 333 207 308 _c
180 283 167 249 167 205 _c
167 161 180 126 207 101 _c
234 76 271 64 318 64 _c
364 64 401 76 428 102 _c
455 127 469 161 469 205 _c
469 249 455 283 429 308 _c
402 333 365 346 318 346 _c
219 388 _m
177 398 144 418 120 447 _c
96 476 85 511 85 553 _c
85 611 105 657 147 691 _c
188 725 245 742 318 742 _c
}_e{390 742 447 725 489 691 _c
530 657 551 611 551 553 _c
551 511 539 476 515 447 _c
491 418 459 398 417 388 _c
464 377 501 355 528 323 _c
554 291 568 251 568 205 _c
568 134 546 80 503 43 _c
459 5 398 -13 318 -13 _c
237 -13 175 5 132 43 _c
89 80 68 134 68 205 _c
68 251 81 291 108 323 _c
134 355 171 377 219 388 _c
183 544 _m
183 506 194 476 218 455 _c
}_e{242 434 275 424 318 424 _c
360 424 393 434 417 455 _c
441 476 453 506 453 544 _c
453 582 441 611 417 632 _c
393 653 360 664 318 664 _c
275 664 242 653 218 632 _c
194 611 183 582 183 544 _c
_cl}_e}_d
/N{748 0 98 0 650 729 _sc
98 729 _m
231 729 _l
554 119 _l
554 729 _l
650 729 _l
650 0 _l
517 0 _l
194 610 _l
194 0 _l
98 0 _l
98 729 _l
_cl}_d
/P{603 0 98 0 569 729 _sc
197 648 _m
197 374 _l
321 374 _l
367 374 402 385 427 409 _c
452 433 465 467 465 511 _c
465 555 452 588 427 612 _c
402 636 367 648 321 648 _c
197 648 _l
98 729 _m
321 729 _l
402 729 464 710 506 673 _c
548 636 569 582 569 511 _c
569 439 548 384 506 348 _c
464 311 402 293 321 293 _c
197 293 _l
197 0 _l
98 0 _l
98 729 _l
_cl}_d
/a{{613 0 60 -13 522 560 _sc
343 275 _m
270 275 220 266 192 250 _c
164 233 150 205 150 165 _c
150 133 160 107 181 89 _c
202 70 231 61 267 61 _c
317 61 357 78 387 114 _c
417 149 432 196 432 255 _c
432 275 _l
343 275 _l
522 312 _m
522 0 _l
432 0 _l
432 83 _l
411 49 385 25 355 10 _c
325 -5 287 -13 243 -13 _c
187 -13 142 2 109 33 _c
76 64 60 106 60 159 _c
}_e{60 220 80 266 122 298 _c
163 329 224 345 306 345 _c
432 345 _l
432 354 _l
432 395 418 427 391 450 _c
364 472 326 484 277 484 _c
245 484 215 480 185 472 _c
155 464 127 453 100 439 _c
100 522 _l
132 534 164 544 195 550 _c
226 556 256 560 286 560 _c
365 560 424 539 463 498 _c
502 457 522 395 522 312 _c
_cl}_e}_d
/b{{635 0 91 -13 580 760 _sc
487 273 _m
487 339 473 390 446 428 _c
418 466 381 485 334 485 _c
286 485 249 466 222 428 _c
194 390 181 339 181 273 _c
181 207 194 155 222 117 _c
249 79 286 61 334 61 _c
381 61 418 79 446 117 _c
473 155 487 207 487 273 _c
181 464 _m
199 496 223 520 252 536 _c
281 552 316 560 356 560 _c
422 560 476 533 518 481 _c
559 428 580 359 580 273 _c
}_e{580 187 559 117 518 65 _c
476 13 422 -13 356 -13 _c
316 -13 281 -5 252 10 _c
223 25 199 49 181 82 _c
181 0 _l
91 0 _l
91 760 _l
181 760 _l
181 464 _l
_cl}_e}_d
/e{{615 0 55 -13 562 560 _sc
562 296 _m
562 252 _l
149 252 _l
153 190 171 142 205 110 _c
238 78 284 62 344 62 _c
378 62 412 66 444 74 _c
476 82 509 95 541 113 _c
541 28 _l
509 14 476 3 442 -3 _c
408 -9 373 -13 339 -13 _c
251 -13 182 12 131 62 _c
80 112 55 181 55 268 _c
55 357 79 428 127 481 _c
175 533 241 560 323 560 _c
397 560 455 536 498 489 _c
}_e{540 441 562 377 562 296 _c
472 322 _m
471 371 457 410 431 440 _c
404 469 368 484 324 484 _c
274 484 234 469 204 441 _c
174 413 156 373 152 322 _c
472 322 _l
_cl}_e}_d
/f{352 0 23 0 371 760 _sc
371 760 _m
371 685 _l
285 685 _l
253 685 230 678 218 665 _c
205 652 199 629 199 595 _c
199 547 _l
347 547 _l
347 477 _l
199 477 _l
199 0 _l
109 0 _l
109 477 _l
23 477 _l
23 547 _l
109 547 _l
109 585 _l
109 645 123 690 151 718 _c
179 746 224 760 286 760 _c
371 760 _l
_cl}_d
/i{278 0 94 0 184 760 _sc
94 547 _m
184 547 _l
184 0 _l
94 0 _l
94 547 _l
94 760 _m
184 760 _l
184 646 _l
94 646 _l
94 760 _l
_cl}_d
/l{278 0 94 0 184 760 _sc
94 760 _m
184 760 _l
184 0 _l
94 0 _l
94 760 _l
_cl}_d
/m{{974 0 91 0 889 560 _sc
520 442 _m
542 482 569 511 600 531 _c
631 550 668 560 711 560 _c
767 560 811 540 842 500 _c
873 460 889 403 889 330 _c
889 0 _l
799 0 _l
799 327 _l
799 379 789 418 771 444 _c
752 469 724 482 686 482 _c
639 482 602 466 575 435 _c
548 404 535 362 535 309 _c
535 0 _l
445 0 _l
445 327 _l
445 379 435 418 417 444 _c
398 469 369 482 331 482 _c
}_e{285 482 248 466 221 435 _c
194 404 181 362 181 309 _c
181 0 _l
91 0 _l
91 547 _l
181 547 _l
181 462 _l
201 495 226 520 255 536 _c
283 552 317 560 357 560 _c
397 560 430 550 458 530 _c
486 510 506 480 520 442 _c
_cl}_e}_d
/n{634 0 91 0 549 560 _sc
549 330 _m
549 0 _l
459 0 _l
459 327 _l
459 379 448 417 428 443 _c
408 469 378 482 338 482 _c
289 482 251 466 223 435 _c
195 404 181 362 181 309 _c
181 0 _l
91 0 _l
91 547 _l
181 547 _l
181 462 _l
202 494 227 519 257 535 _c
286 551 320 560 358 560 _c
420 560 468 540 500 501 _c
532 462 549 405 549 330 _c
_cl}_d
/o{612 0 55 -13 557 560 _sc
306 484 _m
258 484 220 465 192 427 _c
164 389 150 338 150 273 _c
150 207 163 156 191 118 _c
219 80 257 62 306 62 _c
354 62 392 80 420 118 _c
448 156 462 207 462 273 _c
462 337 448 389 420 427 _c
392 465 354 484 306 484 _c
306 560 _m
384 560 445 534 490 484 _c
534 433 557 363 557 273 _c
557 183 534 113 490 63 _c
445 12 384 -13 306 -13 _c
227 -13 165 12 121 63 _c
77 113 55 183 55 273 _c
55 363 77 433 121 484 _c
165 534 227 560 306 560 _c
_cl}_d
/r{411 0 91 0 411 560 _sc
411 463 _m
401 469 390 473 378 476 _c
366 478 353 480 339 480 _c
288 480 249 463 222 430 _c
194 397 181 350 181 288 _c
181 0 _l
91 0 _l
91 547 _l
181 547 _l
181 462 _l
199 495 224 520 254 536 _c
284 552 321 560 365 560 _c
371 560 378 559 386 559 _c
393 558 401 557 411 555 _c
411 463 _l
_cl}_d
/s{{521 0 54 -13 472 560 _sc
443 531 _m
443 446 _l
417 458 391 468 364 475 _c
336 481 308 485 279 485 _c
234 485 200 478 178 464 _c
156 450 145 430 145 403 _c
145 382 153 366 169 354 _c
185 342 217 330 265 320 _c
296 313 _l
360 299 405 279 432 255 _c
458 230 472 195 472 151 _c
472 100 452 60 412 31 _c
372 1 316 -13 246 -13 _c
216 -13 186 -10 154 -5 _c
}_e{122 0 89 8 54 20 _c
54 113 _l
87 95 120 82 152 74 _c
184 65 216 61 248 61 _c
290 61 323 68 346 82 _c
368 96 380 117 380 144 _c
380 168 371 187 355 200 _c
339 213 303 226 247 238 _c
216 245 _l
160 257 119 275 95 299 _c
70 323 58 356 58 399 _c
58 450 76 490 112 518 _c
148 546 200 560 268 560 _c
301 560 332 557 362 552 _c
391 547 418 540 443 531 _c
}_e{_cl}_e}_d
/t{392 0 27 0 368 702 _sc
183 702 _m
183 547 _l
368 547 _l
368 477 _l
183 477 _l
183 180 _l
183 135 189 106 201 94 _c
213 81 238 75 276 75 _c
368 75 _l
368 0 _l
276 0 _l
206 0 158 13 132 39 _c
106 65 93 112 93 180 _c
93 477 _l
27 477 _l
27 547 _l
93 547 _l
93 702 _l
183 702 _l
_cl}_d
/u{634 0 85 -13 543 560 _sc
85 216 _m
85 547 _l
175 547 _l
175 219 _l
175 167 185 129 205 103 _c
225 77 255 64 296 64 _c
344 64 383 79 411 110 _c
439 141 453 183 453 237 _c
453 547 _l
543 547 _l
543 0 _l
453 0 _l
453 84 _l
431 50 405 26 377 10 _c
348 -5 315 -13 277 -13 _c
214 -13 166 6 134 45 _c
101 83 85 140 85 216 _c
311 560 _m
311 560 _l
_cl}_d
/y{592 0 30 -207 562 547 _sc
322 -50 _m
296 -114 271 -157 247 -177 _c
223 -197 191 -207 151 -207 _c
79 -207 _l
79 -132 _l
132 -132 _l
156 -132 175 -126 189 -114 _c
203 -102 218 -75 235 -31 _c
251 9 _l
30 547 _l
125 547 _l
296 119 _l
467 547 _l
562 547 _l
322 -50 _l
_cl}_d
end readonly def

/BuildGlyph
 {exch begin
 CharStrings exch
 2 copy known not{pop /.notdef}if
 true 3 1 roll get exec
 end}_d

/BuildChar {
 1 index /Encoding get exch get
 1 index /BuildGlyph get exec
}_d

FontName currentdict end definefont pop
end
%%EndProlog
mpldict begin
90 252 translate
432 288 0 0 clipbox
gsave
0 0 m
432 0 l
432 288 l
0 288 l
cl
1.000 setgray
fill
grestore
gsave
54 36 m
388.8 36 l
388.8 253.44 l
54 253.44 l
cl
1.000 setgray
fill
grestore
0.800 setlinewidth
1 setlinejoin
0 setlinecap
[] 0 setdash
0.000 setgray
gsave
/o {
gsave
newpath
translate
0.8 setlinewidth
1 setlinejoin
0 setlinecap
0 0 m
0 -3.5 l

gsave
0.000 setgray
fill
grestore
stroke
grestore
} bind def
69.066 36 o
grestore
/DejaVuSans findfont
10.000 scalefont
setfont
gsave
65.886313 21.406250 translate
0.000000 rotate
0.000000 0.000000 m /zero glyphshow
grestore
gsave
/o {
gsave
newpath
translate
0.8 setlinewidth
1 setlinejoin
0 setlinecap
0 0 m
0 -3.5 l

gsave
0.000 setgray
fill
grestore
stroke
grestore
} bind def
129.939 36 o
grestore
gsave
120.399665 21.406250 translate
0.000000 rotate
0.000000 0.000000 m /two glyphshow
6.362305 0.000000 m /zero glyphshow
12.724609 0.000000 m /zero glyphshow
grestore
gsave
/o {
gsave
newpath
translate
0.8 setlinewidth
1 setlinejoin
0 setlinecap
0 0 m
0 -3.5 l

gsave
0.000 setgray
fill
grestore
stroke
grestore
} bind def
190.811 36 o
grestore
gsave
181.272392 21.406250 translate
0.000000 rotate
0.000000 0.000000 m /four glyphshow
6.362305 0.000000 m /zero glyphshow
12.724609 0.000000 m /zero glyphshow
grestore
gsave
/o {
gsave
newpath
translate
0.8 setlinewidth
1 setlinejoin
0 setlinecap
0 0 m
0 -3.5 l

gsave
0.000 setgray
fill
grestore
stroke
grestore
} bind def
251.684 36 o
grestore
gsave
242.145119 21.406250 translate
0.000000 rotate
0.000000 0.000000 m /six glyphshow
6.362305 0.000000 m /zero glyphshow
12.724609 0.000000 m /zero glyphshow
grestore
gsave
/o {
gsave
newpath
translate
0.8 setlinewidth
1 setlinejoin
0 setlinecap
0 0 m
0 -3.5 l

gsave
0.000 setgray
fill
grestore
stroke
grestore
} bind def
312.557 36 o
grestore
gsave
303.017847 21.406250 translate
0.000000 rotate
0.000000 0.000000 m /eight glyphshow
6.362305 0.000000 m /zero glyphshow
12.724609 0.000000 m /zero glyphshow
grestore
gsave
/o {
gsave
newpath
translate
0.8 setlinewidth
1 setlinejoin
0 setlinecap
0 0 m
0 -3.5 l

gsave
0.000 setgray
fill
grestore
stroke
grestore
} bind def
373.43 36 o
grestore
gsave
360.710886 21.406250 translate
0.000000 rotate
0.000000 0.000000 m /one glyphshow
6.362305 0.000000 m /zero glyphshow
12.724609 0.000000 m /zero glyphshow
19.086914 0.000000 m /zero glyphshow
grestore
gsave
179.048438 7.734375 translate
0.000000 rotate
0.000000 0.000000 m /N glyphshow
7.480469 0.000000 m /u glyphshow
13.818359 0.000000 m /m glyphshow
23.559570 0.000000 m /b glyphshow
29.907227 0.000000 m /e glyphshow
36.059570 0.000000 m /r glyphshow
40.170898 0.000000 m /space glyphshow
43.349609 0.000000 m /o glyphshow
49.467773 0.000000 m /f glyphshow
52.988281 0.000000 m /space glyphshow
56.166992 0.000000 m /t glyphshow
60.087891 0.000000 m /r glyphshow
64.199219 0.000000 m /a glyphshow
70.327148 0.000000 m /i glyphshow
73.105469 0.000000 m /n glyphshow
79.443359 0.000000 m /s glyphshow
grestore
gsave
/o {
gsave
newpath
translate
0.8 setlinewidth
1 setlinejoin
0 setlinecap
0 0 m
-3.5 0 l

gsave
0.000 setgray
fill
grestore
stroke
grestore
} bind def
54 45.8836 o
grestore
gsave
18.375000 42.086761 translate
0.000000 rotate
0.000000 0.000000 m /zero glyphshow
6.362305 0.000000 m /period glyphshow
9.541016 0.000000 m /zero glyphshow
15.903320 0.000000 m /zero glyphshow
22.265625 0.000000 m /zero glyphshow
grestore
gsave
/o {
gsave
newpath
translate
0.8 setlinewidth
1 setlinejoin
0 setlinecap
0 0 m
-3.5 0 l

gsave
0.000 setgray
fill
grestore
stroke
grestore
} bind def
54 79.3568 o
grestore
gsave
18.375000 75.559876 translate
0.000000 rotate
0.000000 0.000000 m /zero glyphshow
6.362305 0.000000 m /period glyphshow
9.541016 0.000000 m /zero glyphshow
15.903320 0.000000 m /zero glyphshow
22.265625 0.000000 m /one glyphshow
grestore
gsave
/o {
gsave
newpath
translate
0.8 setlinewidth
1 setlinejoin
0 setlinecap
0 0 m
-3.5 0 l

gsave
0.000 setgray
fill
grestore
stroke
grestore
} bind def
54 112.83 o
grestore
gsave
18.375000 109.032990 translate
0.000000 rotate
0.000000 0.000000 m /zero glyphshow
6.362305 0.000000 m /period glyphshow
9.541016 0.000000 m /zero glyphshow
15.903320 0.000000 m /zero glyphshow
22.265625 0.000000 m /two glyphshow
grestore
gsave
/o {
gsave
newpath
translate
0.8 setlinewidth
1 setlinejoin
0 setlinecap
0 0 m
-3.5 0 l

gsave
0.000 setgray
fill
grestore
stroke
grestore
} bind def
54 146.303 o
grestore
gsave
18.375000 142.506104 translate
0.000000 rotate
0.000000 0.000000 m /zero glyphshow
6.362305 0.000000 m /period glyphshow
9.541016 0.000000 m /zero glyphshow
15.903320 0.000000 m /zero glyphshow
22.265625 0.000000 m /three glyphshow
grestore
gsave
/o {
gsave
newpath
translate
0.8 setlinewidth
1 setlinejoin
0 setlinecap
0 0 m
-3.5 0 l

gsave
0.000 setgray
fill
grestore
stroke
grestore
} bind def
54 179.776 o
grestore
gsave
18.375000 175.979218 translate
0.000000 rotate
0.000000 0.000000 m /zero glyphshow
6.362305 0.000000 m /period glyphshow
9.541016 0.000000 m /zero glyphshow
15.903320 0.000000 m /zero glyphshow
22.265625 0.000000 m /four glyphshow
grestore
gsave
/o {
gsave
newpath
translate
0.8 setlinewidth
1 setlinejoin
0 setlinecap
0 0 m
-3.5 0 l

gsave
0.000 setgray
fill
grestore
stroke
grestore
} bind def
54 213.249 o
grestore
gsave
18.375000 209.452333 translate
0.000000 rotate
0.000000 0.000000 m /zero glyphshow
6.362305 0.000000 m /period glyphshow
9.541016 0.000000 m /zero glyphshow
15.903320 0.000000 m /zero glyphshow
22.265625 0.000000 m /five glyphshow
grestore
gsave
/o {
gsave
newpath
translate
0.8 setlinewidth
1 setlinejoin
0 setlinecap
0 0 m
-3.5 0 l

gsave
0.000 setgray
fill
grestore
stroke
grestore
} bind def
54 246.722 o
grestore
gsave
18.375000 242.925447 translate
0.000000 rotate
0.000000 0.000000 m /zero glyphshow
6.362305 0.000000 m /period glyphshow
9.541016 0.000000 m /zero glyphshow
15.903320 0.000000 m /zero glyphshow
22.265625 0.000000 m /six glyphshow
grestore
gsave
12.296875 118.087187 translate
90.000000 rotate
0.000000 0.000000 m /P glyphshow
6.030273 0.000000 m /r glyphshow
10.141602 0.000000 m /o glyphshow
16.259766 0.000000 m /b glyphshow
22.607422 0.000000 m /a glyphshow
28.735352 0.000000 m /b glyphshow
35.083008 0.000000 m /i glyphshow
37.861328 0.000000 m /l glyphshow
40.639648 0.000000 m /i glyphshow
43.417969 0.000000 m /t glyphshow
47.338867 0.000000 m /y glyphshow
grestore
3.000 setlinewidth
2 setlinecap
0.031 0.188 0.420 setrgbcolor
gsave
334.8 217.4 54 36 clipbox
69.218182 45.883636 m
87.175636 45.883636 l
87.175636 45.883636 l
87.175636 243.556364 l
87.48 243.556364 l
87.48 243.556364 l
87.48 240.315827 l
87.784364 240.315827 l
87.784364 240.315827 l
87.784364 237.179824 l
88.088727 237.179824 l
88.088727 237.179824 l
88.088727 234.143377 l
88.393091 234.143377 l
88.393091 234.143377 l
88.393091 231.201818 l
88.697455 231.201818 l
88.697455 231.201818 l
88.697455 228.350769 l
89.001818 228.350769 l
89.001818 228.350769 l
89.001818 225.586116 l
89.306182 225.586116 l
89.306182 225.586116 l
89.306182 222.903989 l
89.610545 222.903989 l
89.610545 222.903989 l
89.610545 220.300749 l
89.914909 220.300749 l
89.914909 220.300749 l
89.914909 217.772964 l
90.219273 217.772964 l
90.219273 217.772964 l
90.219273 215.317403 l
90.523636 215.317403 l
90.523636 215.317403 l
90.523636 212.931012 l
90.828 212.931012 l
90.828 212.931012 l
90.828 210.610909 l
91.132364 210.610909 l
91.132364 210.610909 l
91.132364 208.354371 l
91.436727 208.354371 l
91.436727 208.354371 l
91.436727 206.158821 l
91.741091 206.158821 l
91.741091 206.158821 l
91.741091 204.021818 l
92.045455 204.021818 l
92.045455 204.021818 l
92.045455 201.941053 l
92.349818 201.941053 l
92.349818 201.941053 l
92.349818 199.914333 l
92.654182 199.914333 l
92.654182 199.914333 l
92.654182 197.93958 l
92.958545 197.93958 l
92.958545 197.93958 l
92.958545 196.014822 l
93.262909 196.014822 l
93.262909 196.014822 l
93.262909 194.138182 l
93.567273 194.138182 l
93.567273 194.138182 l
93.567273 192.307879 l
93.871636 192.307879 l
93.871636 192.307879 l
93.871636 190.522217 l
94.176 190.522217 l
94.176 190.522217 l
94.176 188.779584 l
94.480364 188.779584 l
94.480364 188.779584 l
94.480364 187.078442 l
94.784727 187.078442 l
94.784727 187.078442 l
94.784727 185.417326 l
95.089091 185.417326 l
95.089091 185.417326 l
95.089091 183.794841 l
95.393455 183.794841 l
95.393455 183.794841 l
95.393455 182.209655 l
95.697818 182.209655 l
95.697818 182.209655 l
95.697818 180.660496 l
96.002182 180.660496 l
96.002182 180.660496 l
96.002182 179.146149 l
96.306545 179.146149 l
96.306545 179.146149 l
96.306545 177.665455 l
96.610909 177.665455 l
96.610909 177.665455 l
96.610909 176.217303 l
96.915273 176.217303 l
96.915273 176.217303 l
96.915273 174.800632 l
97.219636 174.800632 l
97.219636 174.800632 l
97.219636 173.414428 l
97.524 173.414428 l
97.524 173.414428 l
97.524 172.057718 l
97.828364 172.057718 l
97.828364 172.057718 l
97.828364 170.729569 l
98.132727 170.729569 l
98.132727 170.729569 l
98.132727 169.429091 l
98.437091 169.429091 l
98.437091 169.429091 l
98.437091 168.155426 l
98.741455 168.155426 l
98.741455 168.155426 l
98.741455 166.907755 l
99.045818 166.907755 l
99.045818 166.907755 l
99.045818 165.685289 l
99.350182 165.685289 l
99.350182 165.685289 l
99.350182 164.487273 l
99.654545 164.487273 l
99.654545 164.487273 l
99.654545 163.312979 l
99.958909 163.312979 l
99.958909 163.312979 l
99.958909 162.161711 l
100.263273 162.161711 l
100.263273 162.161711 l
100.263273 161.032798 l
100.567636 161.032798 l
100.567636 161.032798 l
100.567636 159.925594 l
100.872 159.925594 l
100.872 159.925594 l
100.872 158.839481 l
101.176364 158.839481 l
101.176364 158.839481 l
101.176364 157.773859 l
101.480727 157.773859 l
101.480727 157.773859 l
101.480727 156.728156 l
101.785091 156.728156 l
101.785091 156.728156 l
101.785091 155.701818 l
102.089455 155.701818 l
102.089455 155.701818 l
102.089455 154.694312 l
102.393818 154.694312 l
102.393818 154.694312 l
102.393818 153.705124 l
102.698182 153.705124 l
102.698182 153.705124 l
102.698182 152.733759 l
103.002545 152.733759 l
103.002545 152.733759 l
103.002545 151.77974 l
103.306909 151.77974 l
103.306909 151.77974 l
103.306909 150.842607 l
103.611273 150.842607 l
103.611273 150.842607 l
103.611273 149.921914 l
103.915636 149.921914 l
103.915636 149.921914 l
103.915636 149.017233 l
104.22 149.017233 l
104.22 149.017233 l
104.22 148.12815 l
104.524364 148.12815 l
104.524364 148.12815 l
104.524364 147.254266 l
104.828727 147.254266 l
104.828727 147.254266 l
104.828727 146.395193 l
105.133091 146.395193 l
105.133091 146.395193 l
105.133091 145.550558 l
105.437455 145.550558 l
105.437455 145.550558 l
105.437455 144.72 l
105.741818 144.72 l
105.741818 144.72 l
105.741818 143.903171 l
106.046182 143.903171 l
106.046182 143.903171 l
106.046182 143.099732 l
106.350545 143.099732 l
106.350545 143.099732 l
106.350545 142.309357 l
106.654909 142.309357 l
106.654909 142.309357 l
106.654909 141.53173 l
106.959273 141.53173 l
106.959273 141.53173 l
106.959273 140.766545 l
107.263636 140.766545 l
107.263636 140.766545 l
107.263636 140.013506 l
107.568 140.013506 l
107.568 140.013506 l
107.568 139.272326 l
107.872364 139.272326 l
107.872364 139.272326 l
107.872364 138.542727 l
108.176727 138.542727 l
108.176727 138.542727 l
108.176727 137.82444 l
108.481091 137.82444 l
108.481091 137.82444 l
108.481091 137.117203 l
108.785455 137.117203 l
108.785455 137.117203 l
108.785455 136.420763 l
109.089818 136.420763 l
109.089818 136.420763 l
109.089818 135.734876 l
109.394182 135.734876 l
109.394182 135.734876 l
109.394182 135.059303 l
109.698545 135.059303 l
109.698545 135.059303 l
109.698545 134.393813 l
110.002909 134.393813 l
110.002909 134.393813 l
110.002909 133.738182 l
110.307273 133.738182 l
110.307273 133.738182 l
110.307273 133.092193 l
110.611636 133.092193 l
110.611636 133.092193 l
110.611636 132.455634 l
110.916 132.455634 l
110.916 132.455634 l
110.916 131.8283 l
111.220364 131.8283 l
111.220364 131.8283 l
111.220364 131.209993 l
111.524727 131.209993 l
111.524727 131.209993 l
111.524727 130.600519 l
111.829091 130.600519 l
111.829091 130.600519 l
111.829091 129.999691 l
112.133455 129.999691 l
112.133455 129.999691 l
112.133455 129.407324 l
112.437818 129.407324 l
112.437818 129.407324 l
112.437818 128.823242 l
112.742182 128.823242 l
112.742182 128.823242 l
112.742182 128.247273 l
113.046545 128.247273 l
113.046545 128.247273 l
113.046545 127.679248 l
113.350909 127.679248 l
113.350909 127.679248 l
113.350909 127.119004 l
113.655273 127.119004 l
113.655273 127.119004 l
113.655273 126.566382 l
113.959636 126.566382 l
113.959636 126.566382 l
113.959636 126.021229 l
114.264 126.021229 l
114.264 126.021229 l
114.264 125.483392 l
114.568364 125.483392 l
114.568364 125.483392 l
114.568364 124.952727 l
114.872727 124.952727 l
114.872727 124.952727 l
114.872727 124.429091 l
115.177091 124.429091 l
115.177091 124.429091 l
115.177091 123.912344 l
115.481455 123.912344 l
115.481455 123.912344 l
115.481455 123.402353 l
115.785818 123.402353 l
115.785818 123.402353 l
115.785818 122.898985 l
116.090182 122.898985 l
116.090182 122.898985 l
116.090182 122.402111 l
116.394545 122.402111 l
116.394545 122.402111 l
116.394545 121.911608 l
116.698909 121.911608 l
116.698909 121.911608 l
116.698909 121.427354 l
117.003273 121.427354 l
117.003273 121.427354 l
117.003273 120.949229 l
117.307636 120.949229 l
117.307636 120.949229 l
117.307636 120.477118 l
117.612 120.477118 l
117.612 120.477118 l
117.612 120.010909 l
117.916364 120.010909 l
117.916364 120.010909 l
117.916364 119.550491 l
118.220727 119.550491 l
118.220727 119.550491 l
118.220727 119.095758 l
118.525091 119.095758 l
118.525091 119.095758 l
118.525091 118.646603 l
118.829455 118.646603 l
118.829455 118.646603 l
118.829455 118.202927 l
119.133818 118.202927 l
119.133818 118.202927 l
119.133818 117.764628 l
119.438182 117.764628 l
119.438182 117.764628 l
119.438182 117.33161 l
119.742545 117.33161 l
119.742545 117.33161 l
119.742545 116.903778 l
120.046909 116.903778 l
120.046909 116.903778 l
120.046909 116.481039 l
120.351273 116.481039 l
120.351273 116.481039 l
120.351273 116.063303 l
120.655636 116.063303 l
120.655636 116.063303 l
120.655636 115.650481 l
120.96 115.650481 l
120.96 115.650481 l
120.96 115.242488 l
121.264364 115.242488 l
121.264364 115.242488 l
121.264364 114.839239 l
121.568727 114.839239 l
121.568727 114.839239 l
121.568727 114.440652 l
121.873091 114.440652 l
121.873091 114.440652 l
121.873091 114.046646 l
122.177455 114.046646 l
122.177455 114.046646 l
122.177455 113.657143 l
122.481818 113.657143 l
122.481818 113.657143 l
122.481818 113.272066 l
122.786182 113.272066 l
122.786182 113.272066 l
122.786182 112.891341 l
123.090545 112.891341 l
123.090545 112.891341 l
123.090545 112.514893 l
123.394909 112.514893 l
123.394909 112.514893 l
123.394909 112.142651 l
123.699273 112.142651 l
123.699273 112.142651 l
123.699273 111.774545 l
124.003636 111.774545 l
124.003636 111.774545 l
124.003636 111.410507 l
124.308 111.410507 l
124.308 111.410507 l
124.308 111.05047 l
124.612364 111.05047 l
124.612364 111.05047 l
124.612364 110.694367 l
124.916727 110.694367 l
124.916727 110.694367 l
124.916727 110.342134 l
125.221091 110.342134 l
125.221091 110.342134 l
125.221091 109.99371 l
125.525455 109.99371 l
125.525455 109.99371 l
125.525455 109.649032 l
125.829818 109.649032 l
125.829818 109.649032 l
125.829818 109.308041 l
126.134182 109.308041 l
126.134182 109.308041 l
126.134182 108.970677 l
126.438545 108.970677 l
126.438545 108.970677 l
126.438545 108.636883 l
126.742909 108.636883 l
126.742909 108.636883 l
126.742909 108.306603 l
127.047273 108.306603 l
127.047273 108.306603 l
127.047273 107.979781 l
127.351636 107.979781 l
127.351636 107.979781 l
127.351636 107.656364 l
127.656 107.656364 l
127.656 107.656364 l
127.656 107.336298 l
127.960364 107.336298 l
127.960364 107.336298 l
127.960364 107.019531 l
128.264727 107.019531 l
128.264727 107.019531 l
128.264727 106.706014 l
128.569091 106.706014 l
128.569091 106.706014 l
128.569091 106.395696 l
128.873455 106.395696 l
128.873455 106.395696 l
128.873455 106.088528 l
129.177818 106.088528 l
129.177818 106.088528 l
129.177818 105.784463 l
129.482182 105.784463 l
129.482182 105.784463 l
129.482182 105.483454 l
129.786545 105.483454 l
129.786545 105.483454 l
129.786545 105.185455 l
130.090909 105.185455 l
130.090909 105.185455 l
130.090909 104.890421 l
130.395273 104.890421 l
130.395273 104.890421 l
130.395273 104.598308 l
130.699636 104.598308 l
130.699636 104.598308 l
130.699636 104.309073 l
131.004 104.309073 l
131.004 104.309073 l
131.004 104.022674 l
131.308364 104.022674 l
131.308364 104.022674 l
131.308364 103.739069 l
131.612727 103.739069 l
131.612727 103.739069 l
131.612727 103.458217 l
131.917091 103.458217 l
131.917091 103.458217 l
131.917091 103.180079 l
132.221455 103.180079 l
132.221455 103.180079 l
132.221455 102.904615 l
132.525818 102.904615 l
132.525818 102.904615 l
132.525818 102.631788 l
132.830182 102.631788 l
132.830182 102.631788 l
132.830182 102.361558 l
133.134545 102.361558 l
133.134545 102.361558 l
133.134545 102.093891 l
133.438909 102.093891 l
133.438909 102.093891 l
133.438909 101.828748 l
133.743273 101.828748 l
133.743273 101.828748 l
133.743273 101.566095 l
134.047636 101.566095 l
134.047636 101.566095 l
134.047636 101.305896 l
134.352 101.305896 l
134.352 101.305896 l
134.352 101.048118 l
134.656364 101.048118 l
134.656364 101.048118 l
134.656364 100.792727 l
134.960727 100.792727 l
134.960727 100.792727 l
134.960727 100.53969 l
135.265091 100.53969 l
135.265091 100.53969 l
135.265091 100.288974 l
135.569455 100.288974 l
135.569455 100.288974 l
135.569455 100.040548 l
135.873818 100.040548 l
135.873818 100.040548 l
135.873818 99.79438 l
136.178182 99.79438 l
136.178182 99.79438 l
136.178182 99.55044 l
136.482545 99.55044 l
136.482545 99.55044 l
136.482545 99.308698 l
136.786909 99.308698 l
136.786909 99.308698 l
136.786909 99.069124 l
137.091273 99.069124 l
137.091273 99.069124 l
137.091273 98.831688 l
137.395636 98.831688 l
137.395636 98.831688 l
137.395636 98.596364 l
137.7 98.596364 l
137.7 98.596364 l
137.7 98.363121 l
138.004364 98.363121 l
138.004364 98.363121 l
138.004364 98.131934 l
138.308727 98.131934 l
138.308727 98.131934 l
138.308727 97.902775 l
138.613091 97.902775 l
138.613091 97.902775 l
138.613091 97.675617 l
138.917455 97.675617 l
138.917455 97.675617 l
138.917455 97.450435 l
139.221818 97.450435 l
139.221818 97.450435 l
139.221818 97.227202 l
139.526182 97.227202 l
139.526182 97.227202 l
139.526182 97.005893 l
139.830545 97.005893 l
139.830545 97.005893 l
139.830545 96.786485 l
140.134909 96.786485 l
140.134909 96.786485 l
140.134909 96.568951 l
140.439273 96.568951 l
140.439273 96.568951 l
140.439273 96.353269 l
140.743636 96.353269 l
140.743636 96.353269 l
140.743636 96.139414 l
141.048 96.139414 l
141.048 96.139414 l
141.048 95.927365 l
141.352364 95.927365 l
141.352364 95.927365 l
141.352364 95.717097 l
141.656727 95.717097 l
141.656727 95.717097 l
141.656727 95.508589 l
141.961091 95.508589 l
141.961091 95.508589 l
141.961091 95.301818 l
142.265455 95.301818 l
142.265455 95.301818 l
142.265455 95.096763 l
142.569818 95.096763 l
142.569818 95.096763 l
142.569818 94.893403 l
142.874182 94.893403 l
142.874182 94.893403 l
142.874182 94.691717 l
143.178545 94.691717 l
143.178545 94.691717 l
143.178545 94.491684 l
143.482909 94.491684 l
143.482909 94.491684 l
143.482909 94.293284 l
143.787273 94.293284 l
143.787273 94.293284 l
143.787273 94.096497 l
144.091636 94.096497 l
144.091636 94.096497 l
144.091636 93.901303 l
144.396 93.901303 l
144.396 93.901303 l
144.396 93.707683 l
144.700364 93.707683 l
144.700364 93.707683 l
144.700364 93.515619 l
145.004727 93.515619 l
145.004727 93.515619 l
145.004727 93.325091 l
145.309091 93.325091 l
145.309091 93.325091 l
145.309091 93.136081 l
145.613455 93.136081 l
145.613455 93.136081 l
145.613455 92.948571 l
145.917818 92.948571 l
145.917818 92.948571 l
145.917818 92.762544 l
146.222182 92.762544 l
146.222182 92.762544 l
146.222182 92.577981 l
146.526545 92.577981 l
146.526545 92.577981 l
146.526545 92.394866 l
146.830909 92.394866 l
146.830909 92.394866 l
146.830909 92.213182 l
147.135273 92.213182 l
147.135273 92.213182 l
147.135273 92.032911 l
147.439636 92.032911 l
147.439636 92.032911 l
147.439636 91.854038 l
147.744 91.854038 l
147.744 91.854038 l
147.744 91.676546 l
148.048364 91.676546 l
148.048364 91.676546 l
148.048364 91.50042 l
148.352727 91.50042 l
148.352727 91.50042 l
148.352727 91.325643 l
148.657091 91.325643 l
148.657091 91.325643 l
148.657091 91.1522 l
148.961455 91.1522 l
148.961455 91.1522 l
148.961455 90.980076 l
149.265818 90.980076 l
149.265818 90.980076 l
149.265818 90.809256 l
149.570182 90.809256 l
149.570182 90.809256 l
149.570182 90.639726 l
149.874545 90.639726 l
149.874545 90.639726 l
149.874545 90.47147 l
150.178909 90.47147 l
150.178909 90.47147 l
150.178909 90.304474 l
150.483273 90.304474 l
150.483273 90.304474 l
150.483273 90.138725 l
150.787636 90.138725 l
150.787636 90.138725 l
150.787636 89.974208 l
151.092 89.974208 l
151.092 89.974208 l
151.092 89.810909 l
151.396364 89.810909 l
151.396364 89.810909 l
151.396364 89.648816 l
151.700727 89.648816 l
151.700727 89.648816 l
151.700727 89.487914 l
152.005091 89.487914 l
152.005091 89.487914 l
152.005091 89.328192 l
152.309455 89.328192 l
152.309455 89.328192 l
152.309455 89.169635 l
152.613818 89.169635 l
152.613818 89.169635 l
152.613818 89.012231 l
152.918182 89.012231 l
152.918182 89.012231 l
152.918182 88.855968 l
153.222545 88.855968 l
153.222545 88.855968 l
153.222545 88.700834 l
153.526909 88.700834 l
153.526909 88.700834 l
153.526909 88.546815 l
153.831273 88.546815 l
153.831273 88.546815 l
153.831273 88.3939 l
154.135636 88.3939 l
154.135636 88.3939 l
154.135636 88.242078 l
154.44 88.242078 l
154.44 88.242078 l
154.44 88.091336 l
154.744364 88.091336 l
154.744364 88.091336 l
154.744364 87.941663 l
155.048727 87.941663 l
155.048727 87.941663 l
155.048727 87.793049 l
155.353091 87.793049 l
155.353091 87.793049 l
155.353091 87.64548 l
155.657455 87.64548 l
155.657455 87.64548 l
155.657455 87.498947 l
155.961818 87.498947 l
155.961818 87.498947 l
155.961818 87.353439 l
156.266182 87.353439 l
156.266182 87.353439 l
156.266182 87.208945 l
156.570545 87.208945 l
156.570545 87.208945 l
156.570545 87.065455 l
156.874909 87.065455 l
156.874909 87.065455 l
156.874909 86.922957 l
157.179273 86.922957 l
157.179273 86.922957 l
157.179273 86.781442 l
157.483636 86.781442 l
157.483636 86.781442 l
157.483636 86.6409 l
157.788 86.6409 l
157.788 86.6409 l
157.788 86.50132 l
158.092364 86.50132 l
158.092364 86.50132 l
158.092364 86.362693 l
158.396727 86.362693 l
158.396727 86.362693 l
158.396727 86.225009 l
158.701091 86.225009 l
158.701091 86.225009 l
158.701091 86.088259 l
159.005455 86.088259 l
159.005455 86.088259 l
159.005455 85.952432 l
159.309818 85.952432 l
159.309818 85.952432 l
159.309818 85.817521 l
159.614182 85.817521 l
159.614182 85.817521 l
159.614182 85.683514 l
159.918545 85.683514 l
159.918545 85.683514 l
159.918545 85.550404 l
160.222909 85.550404 l
160.222909 85.550404 l
160.222909 85.418182 l
160.527273 85.418182 l
160.527273 85.418182 l
160.527273 85.286838 l
160.831636 85.286838 l
160.831636 85.286838 l
160.831636 85.156364 l
161.136 85.156364 l
161.136 85.156364 l
161.136 85.026751 l
161.440364 85.026751 l
161.440364 85.026751 l
161.440364 84.89799 l
161.744727 84.89799 l
161.744727 84.89799 l
161.744727 84.770075 l
162.049091 84.770075 l
162.049091 84.770075 l
162.049091 84.642995 l
162.353455 84.642995 l
162.353455 84.642995 l
162.353455 84.516743 l
162.657818 84.516743 l
162.657818 84.516743 l
162.657818 84.391311 l
162.962182 84.391311 l
162.962182 84.391311 l
162.962182 84.26669 l
163.266545 84.26669 l
163.266545 84.26669 l
163.266545 84.142874 l
163.570909 84.142874 l
163.570909 84.142874 l
163.570909 84.019854 l
163.875273 84.019854 l
163.875273 84.019854 l
163.875273 83.897622 l
164.179636 83.897622 l
164.179636 83.897622 l
164.179636 83.776172 l
164.484 83.776172 l
164.484 83.776172 l
164.484 83.655495 l
164.788364 83.655495 l
164.788364 83.655495 l
164.788364 83.535584 l
165.092727 83.535584 l
165.092727 83.535584 l
165.092727 83.416433 l
165.397091 83.416433 l
165.397091 83.416433 l
165.397091 83.298033 l
165.701455 83.298033 l
165.701455 83.298033 l
165.701455 83.180377 l
166.005818 83.180377 l
166.005818 83.180377 l
166.005818 83.06346 l
166.310182 83.06346 l
166.310182 83.06346 l
166.310182 82.947273 l
166.614545 82.947273 l
166.614545 82.947273 l
166.614545 82.83181 l
166.918909 82.83181 l
166.918909 82.83181 l
166.918909 82.717064 l
167.223273 82.717064 l
167.223273 82.717064 l
167.223273 82.603028 l
167.527636 82.603028 l
167.527636 82.603028 l
167.527636 82.489697 l
167.832 82.489697 l
167.832 82.489697 l
167.832 82.377063 l
168.136364 82.377063 l
168.136364 82.377063 l
168.136364 82.26512 l
168.440727 82.26512 l
168.440727 82.26512 l
168.440727 82.153862 l
169.049455 82.043282 l
169.049455 82.043282 l
169.049455 81.933374 l
169.658182 81.824132 l
169.658182 81.824132 l
169.658182 81.715551 l
170.266909 81.607623 l
170.266909 81.607623 l
170.266909 81.500344 l
170.875636 81.393707 l
170.875636 81.393707 l
170.875636 81.287707 l
171.484364 81.182338 l
171.484364 81.182338 l
171.484364 81.077594 l
172.093091 80.97347 l
172.093091 80.97347 l
172.093091 80.86996 l
172.701818 80.767059 l
172.701818 80.767059 l
172.701818 80.664761 l
173.310545 80.563062 l
173.310545 80.563062 l
173.310545 80.461956 l
173.919273 80.361438 l
173.919273 80.361438 l
173.919273 80.261502 l
174.528 80.162144 l
174.528 80.162144 l
174.528 80.063359 l
175.136727 79.965141 l
175.136727 79.965141 l
175.136727 79.867486 l
175.745455 79.77039 l
175.745455 79.77039 l
175.745455 79.673846 l
176.354182 79.577851 l
176.354182 79.577851 l
176.354182 79.4824 l
176.962909 79.387488 l
176.962909 79.387488 l
176.962909 79.293111 l
177.571636 79.199265 l
177.571636 79.199265 l
177.571636 79.105943 l
178.180364 79.013144 l
178.180364 79.013144 l
178.180364 78.920861 l
178.789091 78.829091 l
178.789091 78.829091 l
178.789091 78.737829 l
179.397818 78.647072 l
179.397818 78.647072 l
179.397818 78.556814 l
180.006545 78.467053 l
180.006545 78.467053 l
180.006545 78.377783 l
180.615273 78.289001 l
180.615273 78.289001 l
180.615273 78.200703 l
181.224 78.112885 l
181.224 78.112885 l
181.224 78.025543 l
181.832727 77.938673 l
181.832727 77.938673 l
181.832727 77.852272 l
182.441455 77.766334 l
182.441455 77.766334 l
182.441455 77.680858 l
183.050182 77.595839 l
183.050182 77.595839 l
183.050182 77.511273 l
183.658909 77.427157 l
183.658909 77.427157 l
183.658909 77.343487 l
184.267636 77.26026 l
184.267636 77.26026 l
184.267636 77.177472 l
184.876364 77.09512 l
184.876364 77.09512 l
184.876364 77.0132 l
185.485091 76.931709 l
185.485091 76.931709 l
185.485091 76.850643 l
186.093818 76.77 l
186.093818 76.77 l
186.093818 76.689776 l
186.702545 76.609967 l
186.702545 76.609967 l
186.702545 76.530571 l
187.311273 76.451584 l
187.311273 76.451584 l
187.311273 76.373003 l
187.92 76.294825 l
187.92 76.294825 l
187.92 76.217047 l
188.528727 76.139666 l
188.528727 76.139666 l
188.528727 76.062679 l
189.137455 75.986082 l
189.137455 75.986082 l
189.137455 75.909873 l
189.746182 75.83405 l
189.746182 75.83405 l
189.746182 75.758608 l
190.354909 75.683545 l
190.354909 75.683545 l
190.354909 75.608859 l
190.963636 75.534545 l
190.963636 75.534545 l
190.963636 75.460603 l
191.572364 75.387028 l
191.572364 75.387028 l
191.572364 75.313819 l
192.181091 75.240972 l
192.181091 75.240972 l
192.181091 75.168485 l
192.789818 75.096355 l
192.789818 75.096355 l
192.789818 75.024579 l
193.398545 74.953155 l
193.398545 74.953155 l
193.398545 74.88208 l
194.007273 74.811353 l
194.007273 74.811353 l
194.007273 74.740969 l
194.616 74.670927 l
194.616 74.670927 l
194.616 74.601224 l
195.224727 74.531858 l
195.224727 74.531858 l
195.224727 74.462826 l
195.833455 74.394126 l
195.833455 74.394126 l
195.833455 74.325755 l
196.442182 74.257712 l
196.442182 74.257712 l
196.442182 74.189993 l
197.050909 74.122597 l
197.050909 74.122597 l
197.050909 74.055521 l
197.659636 73.988763 l
197.659636 73.988763 l
197.659636 73.922321 l
198.268364 73.856192 l
198.268364 73.856192 l
198.268364 73.790374 l
198.877091 73.724866 l
198.877091 73.724866 l
198.877091 73.659664 l
199.485818 73.594766 l
199.485818 73.594766 l
199.485818 73.530172 l
200.094545 73.465877 l
200.094545 73.465877 l
200.094545 73.401881 l
200.703273 73.338182 l
200.703273 73.338182 l
200.703273 73.274776 l
201.312 73.211663 l
201.312 73.211663 l
201.312 73.14884 l
201.920727 73.086305 l
201.920727 73.086305 l
201.920727 73.024057 l
202.529455 72.962092 l
202.529455 72.962092 l
202.529455 72.90041 l
203.138182 72.839008 l
203.138182 72.839008 l
203.138182 72.777885 l
203.746909 72.717038 l
203.746909 72.717038 l
203.746909 72.656466 l
204.355636 72.596167 l
204.355636 72.596167 l
204.355636 72.536139 l
204.964364 72.47638 l
204.964364 72.47638 l
204.964364 72.416888 l
205.573091 72.357662 l
205.573091 72.357662 l
205.573091 72.2987 l
206.181818 72.24 l
206.181818 72.24 l
206.181818 72.18156 l
206.790545 72.123379 l
206.790545 72.123379 l
206.790545 72.065455 l
207.399273 72.007785 l
207.399273 72.007785 l
207.399273 71.95037 l
208.008 71.893206 l
208.008 71.893206 l
208.008 71.836292 l
208.616727 71.779627 l
208.616727 71.779627 l
208.616727 71.723209 l
209.225455 71.667036 l
209.225455 71.667036 l
209.225455 71.611106 l
209.834182 71.555419 l
209.834182 71.555419 l
209.834182 71.499973 l
210.747273 71.389795 l
210.747273 71.389795 l
210.747273 71.33506 l
211.660364 71.226294 l
211.660364 71.226294 l
211.660364 71.172258 l
212.573455 71.064876 l
212.573455 71.064876 l
212.573455 71.011525 l
213.486545 70.905501 l
213.486545 70.905501 l
213.486545 70.852823 l
214.399636 70.74813 l
214.399636 70.74813 l
214.399636 70.696113 l
215.312727 70.592727 l
215.312727 70.592727 l
215.312727 70.541357 l
216.225818 70.439255 l
216.225818 70.439255 l
216.225818 70.38852 l
217.138909 70.287677 l
217.138909 70.287677 l
217.138909 70.237566 l
218.052 70.137959 l
218.052 70.137959 l
218.052 70.08846 l
218.965091 69.990067 l
218.965091 69.990067 l
218.965091 69.941169 l
219.878182 69.843967 l
219.878182 69.843967 l
219.878182 69.79566 l
220.791273 69.699628 l
220.791273 69.699628 l
220.791273 69.6519 l
221.704364 69.557017 l
221.704364 69.557017 l
221.704364 69.509859 l
222.617455 69.416104 l
222.617455 69.416104 l
222.617455 69.369505 l
223.530545 69.276859 l
223.530545 69.276859 l
223.530545 69.230809 l
224.443636 69.139251 l
224.443636 69.139251 l
224.443636 69.093741 l
225.356727 69.003254 l
225.356727 69.003254 l
225.356727 68.958274 l
226.269818 68.868837 l
226.269818 68.868837 l
226.269818 68.824378 l
227.182909 68.735975 l
227.182909 68.735975 l
227.182909 68.692028 l
228.096 68.604639 l
228.096 68.604639 l
228.096 68.561196 l
229.009091 68.474805 l
229.009091 68.474805 l
229.009091 68.431856 l
229.922182 68.346446 l
229.922182 68.346446 l
229.922182 68.303984 l
230.835273 68.219538 l
230.835273 68.219538 l
230.835273 68.177553 l
231.748364 68.094055 l
231.748364 68.094055 l
231.748364 68.05254 l
232.661455 67.969975 l
232.661455 67.969975 l
232.661455 67.928922 l
233.574545 67.847273 l
233.574545 67.847273 l
233.574545 67.806675 l
234.487636 67.725927 l
234.487636 67.725927 l
234.487636 67.685775 l
235.400727 67.605914 l
235.400727 67.605914 l
235.400727 67.566202 l
236.313818 67.487213 l
236.313818 67.487213 l
236.313818 67.447934 l
237.226909 67.369802 l
237.226909 67.369802 l
237.226909 67.330949 l
238.14 67.253661 l
238.14 67.253661 l
238.14 67.215226 l
239.053091 67.138768 l
239.053091 67.138768 l
239.053091 67.100745 l
239.966182 67.025105 l
239.966182 67.025105 l
239.966182 66.987486 l
240.879273 66.91265 l
240.879273 66.91265 l
240.879273 66.87543 l
242.096727 66.764558 l
242.096727 66.764558 l
242.096727 66.727861 l
243.314182 66.618538 l
243.314182 66.618538 l
243.314182 66.582351 l
244.531636 66.474545 l
244.531636 66.474545 l
244.531636 66.438859 l
245.749091 66.332539 l
245.749091 66.332539 l
245.749091 66.297343 l
246.966545 66.192478 l
246.966545 66.192478 l
246.966545 66.157762 l
248.184 66.054323 l
248.184 66.054323 l
248.184 66.020077 l
249.401455 65.918034 l
249.401455 65.918034 l
249.401455 65.88425 l
250.618909 65.783575 l
250.618909 65.783575 l
250.618909 65.750242 l
251.836364 65.650909 l
251.836364 65.650909 l
251.836364 65.618018 l
253.053818 65.52 l
253.053818 65.52 l
253.053818 65.487543 l
254.271273 65.390813 l
254.271273 65.390813 l
254.271273 65.358782 l
255.488727 65.263316 l
255.488727 65.263316 l
255.488727 65.231701 l
256.706182 65.137473 l
256.706182 65.137473 l
256.706182 65.106268 l
257.923636 65.013255 l
257.923636 65.013255 l
257.923636 64.982451 l
259.141091 64.890629 l
259.141091 64.890629 l
259.141091 64.860218 l
260.358545 64.769566 l
260.358545 64.769566 l
260.358545 64.73954 l
261.576 64.650035 l
261.576 64.650035 l
261.576 64.620388 l
262.793455 64.532007 l
262.793455 64.532007 l
262.793455 64.502732 l
264.010909 64.415455 l
264.010909 64.415455 l
264.010909 64.386544 l
265.228364 64.30035 l
265.228364 64.30035 l
265.228364 64.271797 l
266.445818 64.186667 l
266.445818 64.186667 l
266.445818 64.158465 l
267.663273 64.074378 l
267.663273 64.074378 l
267.663273 64.046521 l
269.185091 63.93594 l
269.185091 63.93594 l
269.185091 63.908505 l
270.706909 63.799594 l
270.706909 63.799594 l
270.706909 63.772571 l
272.228727 63.665291 l
272.228727 63.665291 l
272.228727 63.638672 l
273.750545 63.532987 l
273.750545 63.532987 l
273.750545 63.506762 l
275.272364 63.402637 l
275.272364 63.402637 l
275.272364 63.376798 l
276.794182 63.274199 l
276.794182 63.274199 l
276.794182 63.248737 l
278.316 63.14763 l
278.316 63.14763 l
278.316 63.122537 l
279.837818 63.02289 l
279.837818 63.02289 l
279.837818 62.998158 l
281.359636 62.89994 l
281.359636 62.89994 l
281.359636 62.875561 l
282.881455 62.778741 l
282.881455 62.778741 l
282.881455 62.754708 l
284.403273 62.659257 l
284.403273 62.659257 l
284.403273 62.635562 l
285.925091 62.54145 l
285.925091 62.54145 l
285.925091 62.518087 l
287.446909 62.425287 l
287.446909 62.425287 l
287.446909 62.402249 l
288.968727 62.310733 l
288.968727 62.310733 l
288.968727 62.288012 l
290.490545 62.197754 l
290.490545 62.197754 l
290.490545 62.175345 l
292.012364 62.086319 l
292.012364 62.086319 l
292.012364 62.064214 l
293.838545 61.95459 l
293.838545 61.95459 l
293.838545 61.932843 l
295.664727 61.824985 l
295.664727 61.824985 l
295.664727 61.803588 l
297.490909 61.697455 l
297.490909 61.697455 l
297.490909 61.676398 l
299.317091 61.571948 l
299.317091 61.571948 l
299.317091 61.551224 l
301.143273 61.448418 l
301.143273 61.448418 l
301.143273 61.428019 l
302.969455 61.326818 l
302.969455 61.326818 l
302.969455 61.306736 l
304.795636 61.207104 l
304.795636 61.207104 l
304.795636 61.187331 l
306.621818 61.089231 l
306.621818 61.089231 l
306.621818 61.069761 l
308.448 60.973158 l
308.448 60.973158 l
308.448 60.953984 l
310.274182 60.858843 l
310.274182 60.858843 l
310.274182 60.839959 l
312.100364 60.746247 l
312.100364 60.746247 l
312.100364 60.727646 l
314.230909 60.617007 l
314.230909 60.617007 l
314.230909 60.598728 l
316.361455 60.489996 l
316.361455 60.489996 l
316.361455 60.47203 l
318.492 60.365155 l
318.492 60.365155 l
318.492 60.347494 l
320.622545 60.24243 l
320.622545 60.24243 l
320.622545 60.225068 l
322.753091 60.121768 l
322.753091 60.121768 l
322.753091 60.104696 l
324.883636 60.003117 l
324.883636 60.003117 l
324.883636 59.986328 l
327.014182 59.886427 l
327.014182 59.886427 l
327.014182 59.869914 l
329.144727 59.77165 l
329.144727 59.77165 l
329.144727 59.755407 l
331.275273 59.658739 l
331.275273 59.658739 l
331.275273 59.642759 l
333.710182 59.531926 l
333.710182 59.531926 l
333.710182 59.516238 l
336.145091 59.407426 l
336.145091 59.407426 l
336.145091 59.392023 l
338.58 59.285177 l
338.58 59.285177 l
338.58 59.270051 l
341.014909 59.165119 l
341.014909 59.165119 l
341.014909 59.150262 l
343.449818 59.047192 l
343.449818 59.047192 l
343.449818 59.032598 l
345.884727 58.931341 l
345.884727 58.931341 l
345.884727 58.917003 l
348.319636 58.817512 l
348.319636 58.817512 l
348.319636 58.803422 l
350.754545 58.705651 l
350.754545 58.705651 l
350.754545 58.691804 l
353.493818 58.582099 l
353.493818 58.582099 l
353.493818 58.568517 l
356.233091 58.460904 l
356.233091 58.460904 l
356.233091 58.447581 l
358.972364 58.342002 l
358.972364 58.342002 l
358.972364 58.328929 l
361.711636 58.225326 l
361.711636 58.225326 l
361.711636 58.212497 l
364.450909 58.110815 l
364.450909 58.110815 l
364.450909 58.098223 l
367.190182 57.99841 l
367.190182 57.99841 l
367.190182 57.986048 l
370.233818 57.875915 l
370.233818 57.875915 l
370.233818 57.863802 l
373.277455 57.755872 l
373.277455 57.755872 l
373.277455 57.744 l
373.581818 57.744 l
373.581818 45.883636 l
373.581818 45.883636 l
stroke
grestore
0.800 setlinewidth
0 setlinejoin
[] 0 setdash
0.000 setgray
gsave
54 36 m
54 253.44 l
stroke
grestore
gsave
388.8 36 m
388.8 253.44 l
stroke
grestore
gsave
54 36 m
388.8 36 l
stroke
grestore
gsave
54 253.44 m
388.8 253.44 l
stroke
grestore
1.000 setlinewidth
0 setlinecap
0.800 setgray
gsave
377.8 240.44 m
381.8 240.44 l
383.133333 240.44 383.8 241.106667 383.8 242.44 c
383.8 246.44 l
383.8 247.773333 383.133333 248.44 381.8 248.44 c
377.8 248.44 l
376.466667 248.44 375.8 247.773333 375.8 246.44 c
375.8 242.44 l
375.8 241.106667 376.466667 240.44 377.8 240.44 c
cl
gsave
1.000 setgray
fill
grestore
stroke
grestore

end
showpage
